{
  "minecraft:ambient_entity_effect": {
    "id": 0,
    "render": {
      "textures": [
        "minecraft:effect_7",
        "minecraft:effect_6",
        "minecraft:effect_5",
        "minecraft:effect_4",
        "minecraft:effect_3",
        "minecraft:effect_2",
        "minecraft:effect_1",
        "minecraft:effect_0"
      ]
    }
  },
  "minecraft:angry_villager": {
    "id": 1,
    "render": {
      "textures": [
        "minecraft:angry"
      ]
    }
  },
  "minecraft:block": {
    "id": 2
  },
  "minecraft:block_marker": {
    "id": 3,
    "override_limiter": true
  },
  "minecraft:bubble": {
    "id": 4,
    "render": {
      "textures": [
        "minecraft:bubble"
      ]
    }
  },
  "minecraft:cloud": {
    "id": 5,
    "render": {
      "textures": [
        "minecraft:generic_7",
        "minecraft:generic_6",
        "minecraft:generic_5",
        "minecraft:generic_4",
        "minecraft:generic_3",
        "minecraft:generic_2",
        "minecraft:generic_1",
        "minecraft:generic_0"
      ]
    }
  },
  "minecraft:crit": {
    "id": 6,
    "render": {
      "textures": [
        "minecraft:critical_hit"
      ]
    }
  },
  "minecraft:damage_indicator": {
    "id": 7,
    "render": {
      "textures": [
        "minecraft:damage"
      ]
    },
    "override_limiter": true
  },
  "minecraft:dragon_breath": {
    "id": 8,
    "render": {
      "textures": [
        "minecraft:generic_5",
        "minecraft:generic_6",
        "minecraft:generic_7"
      ]
    }
  },
  "minecraft:dripping_lava": {
    "id": 9,
    "render": {
      "textures": [
        "minecraft:drip_hang"
      ]
    }
  },
  "minecraft:falling_lava": {
    "id": 10,
    "render": {
      "textures": [
        "minecraft:drip_fall"
      ]
    }
  },
  "minecraft:landing_lava": {
    "id": 11,
    "render": {
      "textures": [
        "minecraft:drip_land"
      ]
    }
  },
  "minecraft:dripping_water": {
    "id": 12,
    "render": {
      "textures": [
        "minecraft:drip_hang"
      ]
    }
  },
  "minecraft:falling_water": {
    "id": 13,
    "render": {
      "textures": [
        "minecraft:drip_fall"
      ]
    }
  },
  "minecraft:dust": {
    "id": 14,
    "render": {
      "textures": [
        "minecraft:generic_7",
        "minecraft:generic_6",
        "minecraft:generic_5",
        "minecraft:generic_4",
        "minecraft:generic_3",
        "minecraft:generic_2",
        "minecraft:generic_1",
        "minecraft:generic_0"
      ]
    }
  },
  "minecraft:dust_color_transition": {
    "id": 15,
    "render": {
      "textures": [
        "minecraft:generic_7",
        "minecraft:generic_6",
        "minecraft:generic_5",
        "minecraft:generic_4",
        "minecraft:generic_3",
        "minecraft:generic_2",
        "minecraft:generic_1",
        "minecraft:generic_0"
      ]
    }
  },
  "minecraft:effect": {
    "id": 16,
    "render": {
      "textures": [
        "minecraft:effect_7",
        "minecraft:effect_6",
        "minecraft:effect_5",
        "minecraft:effect_4",
        "minecraft:effect_3",
        "minecraft:effect_2",
        "minecraft:effect_1",
        "minecraft:effect_0"
      ]
    }
  },
  "minecraft:elder_guardian": {
    "id": 17,
    "override_limiter": true
  },
  "minecraft:enchanted_hit": {
    "id": 18,
    "render": {
      "textures": [
        "minecraft:enchanted_hit"
      ]
    }
  },
  "minecraft:enchant": {
    "id": 19,
    "render": {
      "textures": [
        "minecraft:sga_a",
        "minecraft:sga_b",
        "minecraft:sga_c",
        "minecraft:sga_d",
        "minecraft:sga_e",
        "minecraft:sga_f",
        "minecraft:sga_g",
        "minecraft:sga_h",
        "minecraft:sga_i",
        "minecraft:sga_j",
        "minecraft:sga_k",
        "minecraft:sga_l",
        "minecraft:sga_m",
        "minecraft:sga_n",
        "minecraft:sga_o",
        "minecraft:sga_p",
        "minecraft:sga_q",
        "minecraft:sga_r",
        "minecraft:sga_s",
        "minecraft:sga_t",
        "minecraft:sga_u",
        "minecraft:sga_v",
        "minecraft:sga_w",
        "minecraft:sga_x",
        "minecraft:sga_y",
        "minecraft:sga_z"
      ]
    }
  },
  "minecraft:end_rod": {
    "id": 20,
    "render": {
      "textures": [
        "minecraft:glitter_7",
        "minecraft:glitter_6",
        "minecraft:glitter_5",
        "minecraft:glitter_4",
        "minecraft:glitter_3",
        "minecraft:glitter_2",
        "minecraft:glitter_1",
        "minecraft:glitter_0"
      ]
    }
  },
  "minecraft:entity_effect": {
    "id": 21,
    "render": {
      "textures": [
        "minecraft:effect_7",
        "minecraft:effect_6",
        "minecraft:effect_5",
        "minecraft:effect_4",
        "minecraft:effect_3",
        "minecraft:effect_2",
        "minecraft:effect_1",
        "minecraft:effect_0"
      ]
    }
  },
  "minecraft:explosion_emitter": {
    "id": 22,
    "override_limiter": true
  },
  "minecraft:explosion": {
    "id": 23,
    "render": {
      "textures": [
        "minecraft:explosion_0",
        "minecraft:explosion_1",
        "minecraft:explosion_2",
        "minecraft:explosion_3",
        "minecraft:explosion_4",
        "minecraft:explosion_5",
        "minecraft:explosion_6",
        "minecraft:explosion_7",
        "minecraft:explosion_8",
        "minecraft:explosion_9",
        "minecraft:explosion_10",
        "minecraft:explosion_11",
        "minecraft:explosion_12",
        "minecraft:explosion_13",
        "minecraft:explosion_14",
        "minecraft:explosion_15"
      ]
    },
    "override_limiter": true
  },
  "minecraft:gust": {
    "id": 24,
    "render": {
      "textures": [
        "minecraft:gust_0",
        "minecraft:gust_1",
        "minecraft:gust_2",
        "minecraft:gust_3",
        "minecraft:gust_4",
        "minecraft:gust_5",
        "minecraft:gust_6",
        "minecraft:gust_7",
        "minecraft:gust_8",
        "minecraft:gust_9",
        "minecraft:gust_10",
        "minecraft:gust_11"
      ]
    },
    "override_limiter": true
  },
  "minecraft:gust_emitter": {
    "id": 25,
    "override_limiter": true
  },
  "minecraft:sonic_boom": {
    "id": 26,
    "render": {
      "textures": [
        "minecraft:sonic_boom_0",
        "minecraft:sonic_boom_1",
        "minecraft:sonic_boom_2",
        "minecraft:sonic_boom_3",
        "minecraft:sonic_boom_4",
        "minecraft:sonic_boom_5",
        "minecraft:sonic_boom_6",
        "minecraft:sonic_boom_7",
        "minecraft:sonic_boom_8",
        "minecraft:sonic_boom_9",
        "minecraft:sonic_boom_10",
        "minecraft:sonic_boom_11",
        "minecraft:sonic_boom_12",
        "minecraft:sonic_boom_13",
        "minecraft:sonic_boom_14",
        "minecraft:sonic_boom_15"
      ]
    },
    "override_limiter": true
  },
  "minecraft:falling_dust": {
    "id": 27,
    "render": {
      "textures": [
        "minecraft:generic_7",
        "minecraft:generic_6",
        "minecraft:generic_5",
        "minecraft:generic_4",
        "minecraft:generic_3",
        "minecraft:generic_2",
        "minecraft:generic_1",
        "minecraft:generic_0"
      ]
    }
  },
  "minecraft:firework": {
    "id": 28,
    "render": {
      "textures": [
        "minecraft:spark_7",
        "minecraft:spark_6",
        "minecraft:spark_5",
        "minecraft:spark_4",
        "minecraft:spark_3",
        "minecraft:spark_2",
        "minecraft:spark_1",
        "minecraft:spark_0"
      ]
    }
  },
  "minecraft:fishing": {
    "id": 29,
    "render": {
      "textures": [
        "minecraft:splash_0",
        "minecraft:splash_1",
        "minecraft:splash_2",
        "minecraft:splash_3"
      ]
    }
  },
  "minecraft:flame": {
    "id": 30,
    "render": {
      "textures": [
        "minecraft:flame"
      ]
    }
  },
  "minecraft:cherry_leaves": {
    "id": 31,
    "render": {
      "textures": [
        "minecraft:cherry_0",
        "minecraft:cherry_1",
        "minecraft:cherry_2",
        "minecraft:cherry_3",
        "minecraft:cherry_4",
        "minecraft:cherry_5",
        "minecraft:cherry_6",
        "minecraft:cherry_7",
        "minecraft:cherry_8",
        "minecraft:cherry_9",
        "minecraft:cherry_10",
        "minecraft:cherry_11"
      ]
    }
  },
  "minecraft:sculk_soul": {
    "id": 32,
    "render": {
      "textures": [
        "minecraft:sculk_soul_0",
        "minecraft:sculk_soul_1",
        "minecraft:sculk_soul_2",
        "minecraft:sculk_soul_3",
        "minecraft:sculk_soul_4",
        "minecraft:sculk_soul_5",
        "minecraft:sculk_soul_6",
        "minecraft:sculk_soul_7",
        "minecraft:sculk_soul_8",
        "minecraft:sculk_soul_9",
        "minecraft:sculk_soul_10"
      ]
    }
  },
  "minecraft:sculk_charge": {
    "id": 33,
    "render": {
      "textures": [
        "minecraft:sculk_charge_0",
        "minecraft:sculk_charge_1",
        "minecraft:sculk_charge_2",
        "minecraft:sculk_charge_3",
        "minecraft:sculk_charge_4",
        "minecraft:sculk_charge_5",
        "minecraft:sculk_charge_6"
      ]
    },
    "override_limiter": true
  },
  "minecraft:sculk_charge_pop": {
    "id": 34,
    "render": {
      "textures": [
        "minecraft:sculk_charge_pop_0",
        "minecraft:sculk_charge_pop_1",
        "minecraft:sculk_charge_pop_2",
        "minecraft:sculk_charge_pop_3"
      ]
    },
    "override_limiter": true
  },
  "minecraft:soul_fire_flame": {
    "id": 35,
    "render": {
      "textures": [
        "minecraft:soul_fire_flame"
      ]
    }
  },
  "minecraft:soul": {
    "id": 36,
    "render": {
      "textures": [
        "minecraft:soul_0",
        "minecraft:soul_1",
        "minecraft:soul_2",
        "minecraft:soul_3",
        "minecraft:soul_4",
        "minecraft:soul_5",
        "minecraft:soul_6",
        "minecraft:soul_7",
        "minecraft:soul_8",
        "minecraft:soul_9",
        "minecraft:soul_10"
      ]
    }
  },
  "minecraft:flash": {
    "id": 37,
    "render": {
      "textures": [
        "minecraft:flash"
      ]
    }
  },
  "minecraft:happy_villager": {
    "id": 38,
    "render": {
      "textures": [
        "minecraft:glint"
      ]
    }
  },
  "minecraft:composter": {
    "id": 39,
    "render": {
      "textures": [
        "minecraft:glint"
      ]
    }
  },
  "minecraft:heart": {
    "id": 40,
    "render": {
      "textures": [
        "minecraft:heart"
      ]
    }
  },
  "minecraft:instant_effect": {
    "id": 41,
    "render": {
      "textures": [
        "minecraft:spell_7",
        "minecraft:spell_6",
        "minecraft:spell_5",
        "minecraft:spell_4",
        "minecraft:spell_3",
        "minecraft:spell_2",
        "minecraft:spell_1",
        "minecraft:spell_0"
      ]
    }
  },
  "minecraft:item": {
    "id": 42
  },
  "minecraft:vibration": {
    "id": 43,
    "render": {
      "textures": [
        "minecraft:vibration"
      ]
    },
    "override_limiter": true
  },
  "minecraft:item_slime": {
    "id": 44
  },
  "minecraft:item_snowball": {
    "id": 45
  },
  "minecraft:large_smoke": {
    "id": 46,
    "render": {
      "textures": [
        "minecraft:generic_7",
        "minecraft:generic_6",
        "minecraft:generic_5",
        "minecraft:generic_4",
        "minecraft:generic_3",
        "minecraft:generic_2",
        "minecraft:generic_1",
        "minecraft:generic_0"
      ]
    }
  },
  "minecraft:lava": {
    "id": 47,
    "render": {
      "textures": [
        "minecraft:lava"
      ]
    }
  },
  "minecraft:mycelium": {
    "id": 48,
    "render": {
      "textures": [
        "minecraft:generic_0"
      ]
    }
  },
  "minecraft:note": {
    "id": 49,
    "render": {
      "textures": [
        "minecraft:note"
      ]
    }
  },
  "minecraft:poof": {
    "id": 50,
    "render": {
      "textures": [
        "minecraft:generic_7",
        "minecraft:generic_6",
        "minecraft:generic_5",
        "minecraft:generic_4",
        "minecraft:generic_3",
        "minecraft:generic_2",
        "minecraft:generic_1",
        "minecraft:generic_0"
      ]
    },
    "override_limiter": true
  },
  "minecraft:portal": {
    "id": 51,
    "render": {
      "textures": [
        "minecraft:generic_0",
        "minecraft:generic_1",
        "minecraft:generic_2",
        "minecraft:generic_3",
        "minecraft:generic_4",
        "minecraft:generic_5",
        "minecraft:generic_6",
        "minecraft:generic_7"
      ]
    }
  },
  "minecraft:rain": {
    "id": 52,
    "render": {
      "textures": [
        "minecraft:splash_0",
        "minecraft:splash_1",
        "minecraft:splash_2",
        "minecraft:splash_3"
      ]
    }
  },
  "minecraft:smoke": {
    "id": 53,
    "render": {
      "textures": [
        "minecraft:generic_7",
        "minecraft:generic_6",
        "minecraft:generic_5",
        "minecraft:generic_4",
        "minecraft:generic_3",
        "minecraft:generic_2",
        "minecraft:generic_1",
        "minecraft:generic_0"
      ]
    }
  },
  "minecraft:white_smoke": {
    "id": 54,
    "render": {
      "textures": [
        "minecraft:generic_7",
        "minecraft:generic_6",
        "minecraft:generic_5",
        "minecraft:generic_4",
        "minecraft:generic_3",
        "minecraft:generic_2",
        "minecraft:generic_1",
        "minecraft:generic_0"
      ]
    }
  },
  "minecraft:sneeze": {
    "id": 55,
    "render": {
      "textures": [
        "minecraft:generic_7",
        "minecraft:generic_6",
        "minecraft:generic_5",
        "minecraft:generic_4",
        "minecraft:generic_3",
        "minecraft:generic_2",
        "minecraft:generic_1",
        "minecraft:generic_0"
      ]
    }
  },
  "minecraft:spit": {
    "id": 56,
    "render": {
      "textures": [
        "minecraft:generic_7",
        "minecraft:generic_6",
        "minecraft:generic_5",
        "minecraft:generic_4",
        "minecraft:generic_3",
        "minecraft:generic_2",
        "minecraft:generic_1",
        "minecraft:generic_0"
      ]
    },
    "override_limiter": true
  },
  "minecraft:squid_ink": {
    "id": 57,
    "render": {
      "textures": [
        "minecraft:generic_7",
        "minecraft:generic_6",
        "minecraft:generic_5",
        "minecraft:generic_4",
        "minecraft:generic_3",
        "minecraft:generic_2",
        "minecraft:generic_1",
        "minecraft:generic_0"
      ]
    },
    "override_limiter": true
  },
  "minecraft:sweep_attack": {
    "id": 58,
    "render": {
      "textures": [
        "minecraft:sweep_0",
        "minecraft:sweep_1",
        "minecraft:sweep_2",
        "minecraft:sweep_3",
        "minecraft:sweep_4",
        "minecraft:sweep_5",
        "minecraft:sweep_6",
        "minecraft:sweep_7"
      ]
    },
    "override_limiter": true
  },
  "minecraft:totem_of_undying": {
    "id": 59,
    "render": {
      "textures": [
        "minecraft:glitter_7",
        "minecraft:glitter_6",
        "minecraft:glitter_5",
        "minecraft:glitter_4",
        "minecraft:glitter_3",
        "minecraft:glitter_2",
        "minecraft:glitter_1",
        "minecraft:glitter_0"
      ]
    }
  },
  "minecraft:underwater": {
    "id": 60,
    "render": {
      "textures": [
        "minecraft:generic_0"
      ]
    }
  },
  "minecraft:splash": {
    "id": 61,
    "render": {
      "textures": [
        "minecraft:splash_0",
        "minecraft:splash_1",
        "minecraft:splash_2",
        "minecraft:splash_3"
      ]
    }
  },
  "minecraft:witch": {
    "id": 62,
    "render": {
      "textures": [
        "minecraft:spell_7",
        "minecraft:spell_6",
        "minecraft:spell_5",
        "minecraft:spell_4",
        "minecraft:spell_3",
        "minecraft:spell_2",
        "minecraft:spell_1",
        "minecraft:spell_0"
      ]
    }
  },
  "minecraft:bubble_pop": {
    "id": 63,
    "render": {
      "textures": [
        "minecraft:bubble_pop_0",
        "minecraft:bubble_pop_1",
        "minecraft:bubble_pop_2",
        "minecraft:bubble_pop_3",
        "minecraft:bubble_pop_4"
      ]
    }
  },
  "minecraft:current_down": {
    "id": 64,
    "render": {
      "textures": [
        "minecraft:bubble"
      ]
    }
  },
  "minecraft:bubble_column_up": {
    "id": 65,
    "render": {
      "textures": [
        "minecraft:bubble"
      ]
    }
  },
  "minecraft:nautilus": {
    "id": 66,
    "render": {
      "textures": [
        "minecraft:nautilus"
      ]
    }
  },
  "minecraft:dolphin": {
    "id": 67,
    "render": {
      "textures": [
        "minecraft:generic_0"
      ]
    }
  },
  "minecraft:campfire_cosy_smoke": {
    "id": 68,
    "render": {
      "textures": [
        "minecraft:big_smoke_0",
        "minecraft:big_smoke_1",
        "minecraft:big_smoke_2",
        "minecraft:big_smoke_3",
        "minecraft:big_smoke_4",
        "minecraft:big_smoke_5",
        "minecraft:big_smoke_6",
        "minecraft:big_smoke_7",
        "minecraft:big_smoke_8",
        "minecraft:big_smoke_9",
        "minecraft:big_smoke_10",
        "minecraft:big_smoke_11"
      ]
    },
    "override_limiter": true
  },
  "minecraft:campfire_signal_smoke": {
    "id": 69,
    "render": {
      "textures": [
        "minecraft:big_smoke_0",
        "minecraft:big_smoke_1",
        "minecraft:big_smoke_2",
        "minecraft:big_smoke_3",
        "minecraft:big_smoke_4",
        "minecraft:big_smoke_5",
        "minecraft:big_smoke_6",
        "minecraft:big_smoke_7",
        "minecraft:big_smoke_8",
        "minecraft:big_smoke_9",
        "minecraft:big_smoke_10",
        "minecraft:big_smoke_11"
      ]
    },
    "override_limiter": true
  },
  "minecraft:dripping_honey": {
    "id": 70,
    "render": {
      "textures": [
        "minecraft:drip_hang"
      ]
    }
  },
  "minecraft:falling_honey": {
    "id": 71,
    "render": {
      "textures": [
        "minecraft:drip_fall"
      ]
    }
  },
  "minecraft:landing_honey": {
    "id": 72,
    "render": {
      "textures": [
        "minecraft:drip_land"
      ]
    }
  },
  "minecraft:falling_nectar": {
    "id": 73,
    "render": {
      "textures": [
        "minecraft:drip_fall"
      ]
    }
  },
  "minecraft:falling_spore_blossom": {
    "id": 74,
    "render": {
      "textures": [
        "minecraft:drip_fall"
      ]
    }
  },
  "minecraft:ash": {
    "id": 75,
    "render": {
      "textures": [
        "minecraft:generic_0"
      ]
    }
  },
  "minecraft:crimson_spore": {
    "id": 76,
    "render": {
      "textures": [
        "minecraft:generic_0"
      ]
    }
  },
  "minecraft:warped_spore": {
    "id": 77,
    "render": {
      "textures": [
        "minecraft:generic_0"
      ]
    }
  },
  "minecraft:spore_blossom_air": {
    "id": 78,
    "render": {
      "textures": [
        "minecraft:drip_fall"
      ]
    }
  },
  "minecraft:dripping_obsidian_tear": {
    "id": 79,
    "render": {
      "textures": [
        "minecraft:drip_hang"
      ]
    }
  },
  "minecraft:falling_obsidian_tear": {
    "id": 80,
    "render": {
      "textures": [
        "minecraft:drip_fall"
      ]
    }
  },
  "minecraft:landing_obsidian_tear": {
    "id": 81,
    "render": {
      "textures": [
        "minecraft:drip_land"
      ]
    }
  },
  "minecraft:reverse_portal": {
    "id": 82,
    "render": {
      "textures": [
        "minecraft:generic_0",
        "minecraft:generic_1",
        "minecraft:generic_2",
        "minecraft:generic_3",
        "minecraft:generic_4",
        "minecraft:generic_5",
        "minecraft:generic_6",
        "minecraft:generic_7"
      ]
    }
  },
  "minecraft:white_ash": {
    "id": 83,
    "render": {
      "textures": [
        "minecraft:generic_0"
      ]
    }
  },
  "minecraft:small_flame": {
    "id": 84,
    "render": {
      "textures": [
        "minecraft:flame"
      ]
    }
  },
  "minecraft:snowflake": {
    "id": 85,
    "render": {
      "textures": [
        "minecraft:generic_7",
        "minecraft:generic_6",
        "minecraft:generic_5",
        "minecraft:generic_4",
        "minecraft:generic_3",
        "minecraft:generic_2",
        "minecraft:generic_1",
        "minecraft:generic_0"
      ]
    }
  },
  "minecraft:dripping_dripstone_lava": {
    "id": 86,
    "render": {
      "textures": [
        "minecraft:drip_hang"
      ]
    }
  },
  "minecraft:falling_dripstone_lava": {
    "id": 87,
    "render": {
      "textures": [
        "minecraft:drip_fall"
      ]
    }
  },
  "minecraft:dripping_dripstone_water": {
    "id": 88,
    "render": {
      "textures": [
        "minecraft:drip_hang"
      ]
    }
  },
  "minecraft:falling_dripstone_water": {
    "id": 89,
    "render": {
      "textures": [
        "minecraft:drip_fall"
      ]
    }
  },
  "minecraft:glow_squid_ink": {
    "id": 90,
    "render": {
      "textures": [
        "minecraft:generic_7",
        "minecraft:generic_6",
        "minecraft:generic_5",
        "minecraft:generic_4",
        "minecraft:generic_3",
        "minecraft:generic_2",
        "minecraft:generic_1",
        "minecraft:generic_0"
      ]
    },
    "override_limiter": true
  },
  "minecraft:glow": {
    "id": 91,
    "render": {
      "textures": [
        "minecraft:glow"
      ]
    },
    "override_limiter": true
  },
  "minecraft:wax_on": {
    "id": 92,
    "render": {
      "textures": [
        "minecraft:glow"
      ]
    },
    "override_limiter": true
  },
  "minecraft:wax_off": {
    "id": 93,
    "render": {
      "textures": [
        "minecraft:glow"
      ]
    },
    "override_limiter": true
  },
  "minecraft:electric_spark": {
    "id": 94,
    "render": {
      "textures": [
        "minecraft:glow"
      ]
    },
    "override_limiter": true
  },
  "minecraft:scrape": {
    "id": 95,
    "render": {
      "textures": [
        "minecraft:glow"
      ]
    },
    "override_limiter": true
  },
  "minecraft:shriek": {
    "id": 96,
    "render": {
      "textures": [
        "minecraft:shriek"
      ]
    }
  },
  "minecraft:egg_crack": {
    "id": 97,
    "render": {
      "textures": [
        "minecraft:glint"
      ]
    }
  },
  "minecraft:dust_plume": {
    "id": 98,
    "render": {
      "textures": [
        "minecraft:generic_7",
        "minecraft:generic_6",
        "minecraft:generic_5",
        "minecraft:generic_4",
        "minecraft:generic_3",
        "minecraft:generic_2",
        "minecraft:generic_1",
        "minecraft:generic_0"
      ]
    }
  },
  "minecraft:gust_dust": {
    "id": 99,
    "render": {
      "textures": [
        "minecraft:big_smoke_0",
        "minecraft:big_smoke_1",
        "minecraft:big_smoke_2",
        "minecraft:big_smoke_3",
        "minecraft:big_smoke_4",
        "minecraft:big_smoke_5",
        "minecraft:big_smoke_6",
        "minecraft:big_smoke_7",
        "minecraft:big_smoke_8",
        "minecraft:big_smoke_9",
        "minecraft:big_smoke_10",
        "minecraft:big_smoke_11"
      ]
    }
  },
  "minecraft:trial_spawner_detection": {
    "id": 100,
    "render": {
      "textures": [
        "minecraft:trial_spawner_detection_0",
        "minecraft:trial_spawner_detection_1",
        "minecraft:trial_spawner_detection_2",
        "minecraft:trial_spawner_detection_3",
        "minecraft:trial_spawner_detection_4"
      ]
    },
    "override_limiter": true
  }
}