{
  "minecraft:chat": {
    "id": 0,
    "chat": {
      "translation_key": "chat.type.text",
      "parameters": [
        "sender",
        "content"
      ]
    },
    "narration": {
      "translation_key": "chat.type.text.narrate",
      "parameters": [
        "sender",
        "content"
      ]
    }
  },
  "minecraft:system": {
    "id": 1
  },
  "minecraft:game_info": {
    "id": 2
  },
  "minecraft:say_command": {
    "id": 3,
    "chat": {
      "translation_key": "chat.type.announcement",
      "parameters": [
        "sender",
        "content"
      ]
    },
    "narration": {
      "translation_key": "chat.type.text.narrate",
      "parameters": [
        "sender",
        "content"
      ]
    }
  },
  "minecraft:msg_command": {
    "id": 4,
    "chat": {
      "translation_key": "commands.message.display.incoming",
      "parameters": [
        "sender",
        "content"
      ],
      "style": {
        "color": "gray",
        "italic": true
      }
    },
    "narration": {
      "translation_key": "chat.type.text.narrate",
      "parameters": [
        "sender",
        "content"
      ]
    }
  },
  "minecraft:team_msg_command": {
    "id": 5,
    "chat": {
      "translation_key": "chat.type.team.text",
      "parameters": [
        "team_name",
        "sender",
        "content"
      ]
    },
    "narration": {
      "translation_key": "chat.type.text.narrate",
      "parameters": [
        "sender",
        "content"
      ]
    }
  },
  "minecraft:emote_command": {
    "id": 6,
    "chat": {
      "translation_key": "chat.type.emote",
      "parameters": [
        "sender",
        "content"
      ]
    },
    "narration": {
      "translation_key": "chat.type.emote",
      "parameters": [
        "sender",
        "content"
      ]
    }
  },
  "minecraft:tellraw_command": {
    "id": 7
  }
}