{
  "minecraft:bundle": {
    "id": 0,
    "mask": 2,
    "universe": "main"
  },
  "minecraft:update_1_20": {
    "id": 1,
    "mask": 4,
    "universe": "main"
  },
  "minecraft:vanilla": {
    "id": 2,
    "mask": 1,
    "universe": "main"
  }
}