{
  "minecraft:armorer": {
    "id": 0,
    "matching_states": [
      18269,
      18270,
      18271,
      18272,
      18273,
      18274,
      18275,
      18276
    ]
  },
  "minecraft:butcher": {
    "id": 1,
    "matching_states": [
      18261,
      18262,
      18263,
      18264,
      18265,
      18266,
      18267,
      18268
    ]
  },
  "minecraft:cartographer": {
    "id": 2,
    "matching_states": [
      18277
    ]
  },
  "minecraft:cleric": {
    "id": 3,
    "matching_states": [
      7386,
      7387,
      7388,
      7389,
      7390,
      7391,
      7392,
      7393
    ]
  },
  "minecraft:farmer": {
    "id": 4,
    "matching_states": [
      19213,
      19214,
      19215,
      19216,
      19217,
      19218,
      19219,
      19220,
      19221
    ]
  },
  "minecraft:fisherman": {
    "id": 5,
    "matching_states": [
      18249,
      18250,
      18251,
      18252,
      18253,
      18254,
      18255,
      18256,
      18257,
      18258,
      18259,
      18260
    ]
  },
  "minecraft:fletcher": {
    "id": 6,
    "matching_states": [
      18278
    ]
  },
  "minecraft:leatherworker": {
    "id": 7,
    "matching_states": [
      7394,
      7395,
      7396,
      7397,
      7398,
      7399,
      7400,
      7401
    ]
  },
  "minecraft:librarian": {
    "id": 8,
    "matching_states": [
      18291,
      18292,
      18293,
      18294,
      18295,
      18296,
      18297,
      18298,
      18299,
      18300,
      18301,
      18302,
      18303,
      18304,
      18305,
      18306
    ]
  },
  "minecraft:mason": {
    "id": 9,
    "matching_states": [
      18308,
      18309,
      18310,
      18311
    ]
  },
  "minecraft:shepherd": {
    "id": 10,
    "matching_states": [
      18245,
      18246,
      18247,
      18248
    ]
  },
  "minecraft:toolsmith": {
    "id": 11,
    "matching_states": [
      18307
    ]
  },
  "minecraft:weaponsmith": {
    "id": 12,
    "matching_states": [
      18279,
      18280,
      18281,
      18282,
      18283,
      18284,
      18285,
      18286,
      18287,
      18288,
      18289,
      18290
    ]
  },
  "minecraft:home": {
    "id": 13,
    "matching_states": [
      1684,
      1686,
      1688,
      1690,
      1692,
      1694,
      1696,
      1698,
      1700,
      1702,
      1704,
      1706,
      1708,
      1710,
      1712,
      1714,
      1716,
      1718,
      1720,
      1722,
      1724,
      1726,
      1728,
      1730,
      1732,
      1734,
      1736,
      1738,
      1740,
      1742,
      1744,
      1746,
      1748,
      1750,
      1752,
      1754,
      1756,
      1758,
      1760,
      1762,
      1764,
      1766,
      1768,
      1770,
      1772,
      1774,
      1776,
      1778,
      1780,
      1782,
      1784,
      1786,
      1788,
      1790,
      1792,
      1794,
      1796,
      1798,
      1800,
      1802,
      1804,
      1806,
      1808,
      1810,
      1812,
      1814,
      1816,
      1818,
      1820,
      1822,
      1824,
      1826,
      1828,
      1830,
      1832,
      1834,
      1836,
      1838,
      1840,
      1842,
      1844,
      1846,
      1848,
      1850,
      1852,
      1854,
      1856,
      1858,
      1860,
      1862,
      1864,
      1866,
      1868,
      1870,
      1872,
      1874,
      1876,
      1878,
      1880,
      1882,
      1884,
      1886,
      1888,
      1890,
      1892,
      1894,
      1896,
      1898,
      1900,
      1902,
      1904,
      1906,
      1908,
      1910,
      1912,
      1914,
      1916,
      1918,
      1920,
      1922,
      1924,
      1926,
      1928,
      1930,
      1932,
      1934,
      1936,
      1938
    ]
  },
  "minecraft:meeting": {
    "id": 14,
    "matching_states": [
      18312,
      18313,
      18314,
      18315,
      18316,
      18317,
      18318,
      18319,
      18320,
      18321,
      18322,
      18323,
      18324,
      18325,
      18326,
      18327,
      18328,
      18329,
      18330,
      18331,
      18332,
      18333,
      18334,
      18335,
      18336,
      18337,
      18338,
      18339,
      18340,
      18341,
      18342,
      18343
    ]
  },
  "minecraft:beehive": {
    "id": 15,
    "matching_states": [
      19262,
      19263,
      19264,
      19265,
      19266,
      19267,
      19268,
      19269,
      19270,
      19271,
      19272,
      19273,
      19274,
      19275,
      19276,
      19277,
      19278,
      19279,
      19280,
      19281,
      19282,
      19283,
      19284,
      19285
    ]
  },
  "minecraft:bee_nest": {
    "id": 16,
    "matching_states": [
      19238,
      19239,
      19240,
      19241,
      19242,
      19243,
      19244,
      19245,
      19246,
      19247,
      19248,
      19249,
      19250,
      19251,
      19252,
      19253,
      19254,
      19255,
      19256,
      19257,
      19258,
      19259,
      19260,
      19261
    ]
  },
  "minecraft:nether_portal": {
    "id": 17,
    "matching_states": [
      5861,
      5862
    ]
  },
  "minecraft:lodestone": {
    "id": 18,
    "matching_states": [
      19300
    ]
  },
  "minecraft:lightning_rod": {
    "id": 19,
    "matching_states": [
      21867,
      21868,
      21869,
      21870,
      21871,
      21872,
      21873,
      21874,
      21875,
      21876,
      21877,
      21878,
      21879,
      21880,
      21881,
      21882,
      21883,
      21884,
      21885,
      21886,
      21887,
      21888,
      21889,
      21890
    ]
  }
}