{
  "0": {
    "name": "wood",
    "break_sound_type": 1415,
    "step_sound_type": 1419,
    "place_sound_type": 1418,
    "hit_sound_type": 1417,
    "fall_sound_type": 1416
  },
  "1": {
    "name": "gravel",
    "break_sound_type": 565,
    "step_sound_type": 569,
    "place_sound_type": 568,
    "hit_sound_type": 567,
    "fall_sound_type": 566
  },
  "2": {
    "name": "grass",
    "break_sound_type": 560,
    "step_sound_type": 564,
    "place_sound_type": 563,
    "hit_sound_type": 562,
    "fall_sound_type": 561
  },
  "3": {
    "name": "lily_pad",
    "break_sound_type": 141,
    "step_sound_type": 145,
    "place_sound_type": 1343,
    "hit_sound_type": 143,
    "fall_sound_type": 142
  },
  "4": {
    "name": "stone",
    "break_sound_type": 1245,
    "step_sound_type": 1253,
    "place_sound_type": 1250,
    "hit_sound_type": 1249,
    "fall_sound_type": 1248
  },
  "5": {
    "name": "metal",
    "break_sound_type": 724,
    "step_sound_type": 730,
    "place_sound_type": 727,
    "hit_sound_type": 726,
    "fall_sound_type": 725
  },
  "6": {
    "name": "glass",
    "break_sound_type": 525,
    "step_sound_type": 529,
    "place_sound_type": 528,
    "hit_sound_type": 527,
    "fall_sound_type": 526
  },
  "7": {
    "name": "wool",
    "break_sound_type": 1420,
    "step_sound_type": 1424,
    "place_sound_type": 1423,
    "hit_sound_type": 1422,
    "fall_sound_type": 1421
  },
  "8": {
    "name": "sand",
    "break_sound_type": 1078,
    "step_sound_type": 1082,
    "place_sound_type": 1081,
    "hit_sound_type": 1080,
    "fall_sound_type": 1079
  },
  "9": {
    "name": "snow",
    "break_sound_type": 1223,
    "step_sound_type": 1232,
    "place_sound_type": 1231,
    "hit_sound_type": 1230,
    "fall_sound_type": 1224
  },
  "10": {
    "name": "powder_snow",
    "break_sound_type": 1027,
    "step_sound_type": 1031,
    "place_sound_type": 1030,
    "hit_sound_type": 1029,
    "fall_sound_type": 1028
  },
  "11": {
    "name": "ladder",
    "break_sound_type": 674,
    "step_sound_type": 678,
    "place_sound_type": 677,
    "hit_sound_type": 676,
    "fall_sound_type": 675
  },
  "12": {
    "sound_type_volume": 0.3,
    "sound_type_pitch": 1.0,
    "name": "anvil",
    "break_sound_type": 45,
    "step_sound_type": 51,
    "place_sound_type": 50,
    "hit_sound_type": 48,
    "fall_sound_type": 47
  },
  "13": {
    "name": "slime",
    "break_sound_type": 1167,
    "step_sound_type": 1171,
    "place_sound_type": 1170,
    "hit_sound_type": 1169,
    "fall_sound_type": 1168
  },
  "14": {
    "name": "honey",
    "break_sound_type": 609,
    "step_sound_type": 614,
    "place_sound_type": 612,
    "hit_sound_type": 611,
    "fall_sound_type": 610
  },
  "15": {
    "name": "wet_grass",
    "break_sound_type": 1377,
    "step_sound_type": 1381,
    "place_sound_type": 1380,
    "hit_sound_type": 1379,
    "fall_sound_type": 1378
  },
  "16": {
    "name": "coral",
    "break_sound_type": 302,
    "step_sound_type": 306,
    "place_sound_type": 305,
    "hit_sound_type": 304,
    "fall_sound_type": 303
  },
  "17": {
    "name": "bamboo",
    "break_sound_type": 89,
    "step_sound_type": 93,
    "place_sound_type": 92,
    "hit_sound_type": 91,
    "fall_sound_type": 90
  },
  "18": {
    "name": "bamboo_sapling",
    "break_sound_type": 94,
    "step_sound_type": 93,
    "place_sound_type": 96,
    "hit_sound_type": 95,
    "fall_sound_type": 90
  },
  "19": {
    "name": "scaffolding",
    "break_sound_type": 1083,
    "step_sound_type": 1087,
    "place_sound_type": 1086,
    "hit_sound_type": 1085,
    "fall_sound_type": 1084
  },
  "20": {
    "name": "sweet_berry_bush",
    "break_sound_type": 1258,
    "step_sound_type": 564,
    "place_sound_type": 1259,
    "hit_sound_type": 562,
    "fall_sound_type": 561
  },
  "21": {
    "name": "crop",
    "break_sound_type": 315,
    "step_sound_type": 564,
    "place_sound_type": 316,
    "hit_sound_type": 562,
    "fall_sound_type": 561
  },
  "22": {
    "name": "stem",
    "break_sound_type": 1415,
    "step_sound_type": 1419,
    "place_sound_type": 316,
    "hit_sound_type": 1417,
    "fall_sound_type": 1416
  },
  "23": {
    "name": "vine",
    "break_sound_type": 1338,
    "step_sound_type": 1342,
    "place_sound_type": 1341,
    "hit_sound_type": 1340,
    "fall_sound_type": 1339
  },
  "24": {
    "name": "nether_wart",
    "break_sound_type": 820,
    "step_sound_type": 1253,
    "place_sound_type": 821,
    "hit_sound_type": 1249,
    "fall_sound_type": 1248
  },
  "25": {
    "name": "lantern",
    "break_sound_type": 679,
    "step_sound_type": 683,
    "place_sound_type": 682,
    "hit_sound_type": 681,
    "fall_sound_type": 680
  },
  "26": {
    "name": "nether_stem",
    "break_sound_type": 843,
    "step_sound_type": 844,
    "place_sound_type": 845,
    "hit_sound_type": 846,
    "fall_sound_type": 847
  },
  "27": {
    "name": "nylium",
    "break_sound_type": 848,
    "step_sound_type": 849,
    "place_sound_type": 850,
    "hit_sound_type": 851,
    "fall_sound_type": 852
  },
  "28": {
    "name": "fungus",
    "break_sound_type": 858,
    "step_sound_type": 859,
    "place_sound_type": 860,
    "hit_sound_type": 861,
    "fall_sound_type": 862
  },
  "29": {
    "name": "roots",
    "break_sound_type": 497,
    "step_sound_type": 498,
    "place_sound_type": 499,
    "hit_sound_type": 500,
    "fall_sound_type": 501
  },
  "30": {
    "name": "shroomlight",
    "break_sound_type": 1126,
    "step_sound_type": 1127,
    "place_sound_type": 1128,
    "hit_sound_type": 1129,
    "fall_sound_type": 1130
  },
  "31": {
    "name": "weeping_vines",
    "break_sound_type": 863,
    "step_sound_type": 864,
    "place_sound_type": 865,
    "hit_sound_type": 866,
    "fall_sound_type": 867
  },
  "32": {
    "name": "weeping_vines_low_pitch",
    "break_sound_type": 863,
    "step_sound_type": 864,
    "place_sound_type": 865,
    "hit_sound_type": 866,
    "fall_sound_type": 867
  },
  "33": {
    "name": "soul_sand",
    "break_sound_type": 1179,
    "step_sound_type": 1180,
    "place_sound_type": 1181,
    "hit_sound_type": 1182,
    "fall_sound_type": 1183
  },
  "34": {
    "name": "soul_soil",
    "break_sound_type": 1184,
    "step_sound_type": 1185,
    "place_sound_type": 1186,
    "hit_sound_type": 1187,
    "fall_sound_type": 1188
  },
  "35": {
    "name": "basalt",
    "break_sound_type": 114,
    "step_sound_type": 115,
    "place_sound_type": 116,
    "hit_sound_type": 117,
    "fall_sound_type": 118
  },
  "36": {
    "name": "wart_block",
    "break_sound_type": 868,
    "step_sound_type": 869,
    "place_sound_type": 870,
    "hit_sound_type": 871,
    "fall_sound_type": 872
  },
  "37": {
    "name": "netherrack",
    "break_sound_type": 878,
    "step_sound_type": 879,
    "place_sound_type": 880,
    "hit_sound_type": 881,
    "fall_sound_type": 882
  },
  "38": {
    "name": "nether_bricks",
    "break_sound_type": 815,
    "step_sound_type": 816,
    "place_sound_type": 817,
    "hit_sound_type": 818,
    "fall_sound_type": 819
  },
  "39": {
    "name": "nether_sprouts",
    "break_sound_type": 853,
    "step_sound_type": 854,
    "place_sound_type": 855,
    "hit_sound_type": 856,
    "fall_sound_type": 857
  },
  "40": {
    "name": "nether_ore",
    "break_sound_type": 1059,
    "step_sound_type": 1063,
    "place_sound_type": 1062,
    "hit_sound_type": 1061,
    "fall_sound_type": 1060
  },
  "41": {
    "name": "bone",
    "break_sound_type": 153,
    "step_sound_type": 157,
    "place_sound_type": 156,
    "hit_sound_type": 155,
    "fall_sound_type": 154
  },
  "42": {
    "name": "netherite",
    "break_sound_type": 873,
    "step_sound_type": 874,
    "place_sound_type": 875,
    "hit_sound_type": 876,
    "fall_sound_type": 877
  },
  "43": {
    "name": "ancient_debris",
    "break_sound_type": 40,
    "step_sound_type": 41,
    "place_sound_type": 42,
    "hit_sound_type": 43,
    "fall_sound_type": 44
  },
  "44": {
    "name": "lodestone",
    "break_sound_type": 705,
    "step_sound_type": 706,
    "place_sound_type": 707,
    "hit_sound_type": 708,
    "fall_sound_type": 709
  },
  "45": {
    "name": "chain",
    "break_sound_type": 228,
    "step_sound_type": 232,
    "place_sound_type": 231,
    "hit_sound_type": 230,
    "fall_sound_type": 229
  },
  "46": {
    "name": "nether_gold_ore",
    "break_sound_type": 1054,
    "step_sound_type": 1058,
    "place_sound_type": 1057,
    "hit_sound_type": 1056,
    "fall_sound_type": 1055
  },
  "47": {
    "name": "gilded_blackstone",
    "break_sound_type": 520,
    "step_sound_type": 524,
    "place_sound_type": 523,
    "hit_sound_type": 522,
    "fall_sound_type": 521
  },
  "48": {
    "name": "candle",
    "break_sound_type": 207,
    "step_sound_type": 212,
    "place_sound_type": 211,
    "hit_sound_type": 210,
    "fall_sound_type": 209
  },
  "49": {
    "name": "amethyst_block",
    "break_sound_type": 29,
    "step_sound_type": 34,
    "place_sound_type": 33,
    "hit_sound_type": 32,
    "fall_sound_type": 31
  },
  "50": {
    "name": "amethyst_cluster",
    "break_sound_type": 35,
    "step_sound_type": 39,
    "place_sound_type": 38,
    "hit_sound_type": 37,
    "fall_sound_type": 36
  },
  "51": {
    "name": "small_amethyst_bud",
    "break_sound_type": 1172,
    "step_sound_type": 39,
    "place_sound_type": 1173,
    "hit_sound_type": 37,
    "fall_sound_type": 36
  },
  "52": {
    "name": "medium_amethyst_bud",
    "break_sound_type": 722,
    "step_sound_type": 39,
    "place_sound_type": 723,
    "hit_sound_type": 37,
    "fall_sound_type": 36
  },
  "53": {
    "name": "large_amethyst_bud",
    "break_sound_type": 684,
    "step_sound_type": 39,
    "place_sound_type": 685,
    "hit_sound_type": 37,
    "fall_sound_type": 36
  },
  "54": {
    "name": "tuff",
    "break_sound_type": 1284,
    "step_sound_type": 1285,
    "place_sound_type": 1286,
    "hit_sound_type": 1287,
    "fall_sound_type": 1288
  },
  "55": {
    "name": "calcite",
    "break_sound_type": 189,
    "step_sound_type": 190,
    "place_sound_type": 191,
    "hit_sound_type": 192,
    "fall_sound_type": 193
  },
  "56": {
    "name": "dripstone_block",
    "break_sound_type": 365,
    "step_sound_type": 366,
    "place_sound_type": 367,
    "hit_sound_type": 368,
    "fall_sound_type": 369
  },
  "57": {
    "name": "pointed_dripstone",
    "break_sound_type": 370,
    "step_sound_type": 371,
    "place_sound_type": 372,
    "hit_sound_type": 373,
    "fall_sound_type": 374
  },
  "58": {
    "name": "copper",
    "break_sound_type": 297,
    "step_sound_type": 298,
    "place_sound_type": 299,
    "hit_sound_type": 300,
    "fall_sound_type": 301
  },
  "59": {
    "name": "cave_vines",
    "break_sound_type": 222,
    "step_sound_type": 226,
    "place_sound_type": 225,
    "hit_sound_type": 224,
    "fall_sound_type": 223
  },
  "60": {
    "name": "spore_blossom",
    "break_sound_type": 1190,
    "step_sound_type": 1194,
    "place_sound_type": 1193,
    "hit_sound_type": 1192,
    "fall_sound_type": 1191
  },
  "61": {
    "name": "azalea",
    "break_sound_type": 79,
    "step_sound_type": 83,
    "place_sound_type": 82,
    "hit_sound_type": 81,
    "fall_sound_type": 80
  },
  "62": {
    "name": "flowering_azalea",
    "break_sound_type": 457,
    "step_sound_type": 461,
    "place_sound_type": 460,
    "hit_sound_type": 459,
    "fall_sound_type": 458
  },
  "63": {
    "name": "moss_carpet",
    "break_sound_type": 739,
    "step_sound_type": 743,
    "place_sound_type": 742,
    "hit_sound_type": 741,
    "fall_sound_type": 740
  },
  "64": {
    "name": "pink_petals",
    "break_sound_type": 744,
    "step_sound_type": 748,
    "place_sound_type": 747,
    "hit_sound_type": 746,
    "fall_sound_type": 745
  },
  "65": {
    "name": "moss_block",
    "break_sound_type": 749,
    "step_sound_type": 753,
    "place_sound_type": 752,
    "hit_sound_type": 751,
    "fall_sound_type": 750
  },
  "66": {
    "name": "big_dripleaf",
    "break_sound_type": 141,
    "step_sound_type": 145,
    "place_sound_type": 144,
    "hit_sound_type": 143,
    "fall_sound_type": 142
  },
  "67": {
    "name": "small_dripleaf",
    "break_sound_type": 1174,
    "step_sound_type": 1178,
    "place_sound_type": 1177,
    "hit_sound_type": 1176,
    "fall_sound_type": 1175
  },
  "68": {
    "name": "rooted_dirt",
    "break_sound_type": 1069,
    "step_sound_type": 1073,
    "place_sound_type": 1072,
    "hit_sound_type": 1071,
    "fall_sound_type": 1070
  },
  "69": {
    "name": "hanging_roots",
    "break_sound_type": 580,
    "step_sound_type": 584,
    "place_sound_type": 583,
    "hit_sound_type": 582,
    "fall_sound_type": 581
  },
  "70": {
    "name": "azalea_leaves",
    "break_sound_type": 84,
    "step_sound_type": 88,
    "place_sound_type": 87,
    "hit_sound_type": 86,
    "fall_sound_type": 85
  },
  "71": {
    "name": "sculk_sensor",
    "break_sound_type": 1103,
    "step_sound_type": 1107,
    "place_sound_type": 1106,
    "hit_sound_type": 1105,
    "fall_sound_type": 1104
  },
  "72": {
    "name": "sculk_catalyst",
    "break_sound_type": 1096,
    "step_sound_type": 1100,
    "place_sound_type": 1099,
    "hit_sound_type": 1098,
    "fall_sound_type": 1097
  },
  "73": {
    "name": "sculk",
    "break_sound_type": 1090,
    "step_sound_type": 1094,
    "place_sound_type": 1093,
    "hit_sound_type": 1092,
    "fall_sound_type": 1091
  },
  "74": {
    "name": "sculk_vein",
    "break_sound_type": 1114,
    "step_sound_type": 1118,
    "place_sound_type": 1117,
    "hit_sound_type": 1116,
    "fall_sound_type": 1115
  },
  "75": {
    "name": "sculk_shrieker",
    "break_sound_type": 1108,
    "step_sound_type": 1113,
    "place_sound_type": 1111,
    "hit_sound_type": 1110,
    "fall_sound_type": 1109
  },
  "76": {
    "name": "glow_lichen",
    "break_sound_type": 560,
    "step_sound_type": 1342,
    "place_sound_type": 563,
    "hit_sound_type": 562,
    "fall_sound_type": 561
  },
  "77": {
    "name": "deepslate",
    "break_sound_type": 336,
    "step_sound_type": 340,
    "place_sound_type": 339,
    "hit_sound_type": 338,
    "fall_sound_type": 337
  },
  "78": {
    "name": "deepslate_bricks",
    "break_sound_type": 331,
    "step_sound_type": 335,
    "place_sound_type": 334,
    "hit_sound_type": 333,
    "fall_sound_type": 332
  },
  "79": {
    "name": "deepslate_tiles",
    "break_sound_type": 341,
    "step_sound_type": 345,
    "place_sound_type": 344,
    "hit_sound_type": 343,
    "fall_sound_type": 342
  },
  "80": {
    "name": "polished_deepslate",
    "break_sound_type": 1019,
    "step_sound_type": 1023,
    "place_sound_type": 1022,
    "hit_sound_type": 1021,
    "fall_sound_type": 1020
  },
  "81": {
    "name": "froglight",
    "break_sound_type": 478,
    "step_sound_type": 482,
    "place_sound_type": 481,
    "hit_sound_type": 480,
    "fall_sound_type": 479
  },
  "82": {
    "name": "frogspawn",
    "break_sound_type": 484,
    "step_sound_type": 483,
    "place_sound_type": 488,
    "hit_sound_type": 487,
    "fall_sound_type": 485
  },
  "83": {
    "name": "mangrove_roots",
    "break_sound_type": 717,
    "step_sound_type": 721,
    "place_sound_type": 720,
    "hit_sound_type": 719,
    "fall_sound_type": 718
  },
  "84": {
    "name": "muddy_mangrove_roots",
    "break_sound_type": 764,
    "step_sound_type": 768,
    "place_sound_type": 767,
    "hit_sound_type": 766,
    "fall_sound_type": 765
  },
  "85": {
    "name": "mud",
    "break_sound_type": 754,
    "step_sound_type": 758,
    "place_sound_type": 757,
    "hit_sound_type": 756,
    "fall_sound_type": 755
  },
  "86": {
    "name": "mud_bricks",
    "break_sound_type": 759,
    "step_sound_type": 763,
    "place_sound_type": 762,
    "hit_sound_type": 761,
    "fall_sound_type": 760
  },
  "87": {
    "name": "packed_mud",
    "break_sound_type": 838,
    "step_sound_type": 842,
    "place_sound_type": 841,
    "hit_sound_type": 840,
    "fall_sound_type": 839
  },
  "88": {
    "name": "hanging_sign",
    "break_sound_type": 586,
    "step_sound_type": 585,
    "place_sound_type": 589,
    "hit_sound_type": 588,
    "fall_sound_type": 587
  },
  "89": {
    "name": "nether_wood_hanging_sign",
    "break_sound_type": 591,
    "step_sound_type": 590,
    "place_sound_type": 594,
    "hit_sound_type": 593,
    "fall_sound_type": 592
  },
  "90": {
    "name": "bamboo_wood_hanging_sign",
    "break_sound_type": 596,
    "step_sound_type": 595,
    "place_sound_type": 599,
    "hit_sound_type": 598,
    "fall_sound_type": 597
  },
  "91": {
    "name": "bamboo_wood",
    "break_sound_type": 97,
    "step_sound_type": 101,
    "place_sound_type": 100,
    "hit_sound_type": 99,
    "fall_sound_type": 98
  },
  "92": {
    "name": "nether_wood",
    "break_sound_type": 822,
    "step_sound_type": 826,
    "place_sound_type": 825,
    "hit_sound_type": 824,
    "fall_sound_type": 823
  },
  "93": {
    "name": "cherry_wood",
    "break_sound_type": 233,
    "step_sound_type": 237,
    "place_sound_type": 236,
    "hit_sound_type": 235,
    "fall_sound_type": 234
  },
  "94": {
    "name": "cherry_sapling",
    "break_sound_type": 238,
    "step_sound_type": 242,
    "place_sound_type": 241,
    "hit_sound_type": 240,
    "fall_sound_type": 239
  },
  "95": {
    "name": "cherry_leaves",
    "break_sound_type": 243,
    "step_sound_type": 247,
    "place_sound_type": 246,
    "hit_sound_type": 245,
    "fall_sound_type": 244
  },
  "96": {
    "name": "cherry_wood_hanging_sign",
    "break_sound_type": 249,
    "step_sound_type": 248,
    "place_sound_type": 252,
    "hit_sound_type": 251,
    "fall_sound_type": 250
  },
  "97": {
    "name": "chiseled_bookshelf",
    "break_sound_type": 271,
    "step_sound_type": 276,
    "place_sound_type": 279,
    "hit_sound_type": 273,
    "fall_sound_type": 272
  },
  "98": {
    "name": "suspicious_sand",
    "break_sound_type": 473,
    "step_sound_type": 474,
    "place_sound_type": 475,
    "hit_sound_type": 476,
    "fall_sound_type": 477
  },
  "99": {
    "name": "decorated_pot",
    "break_sound_type": 837,
    "step_sound_type": 328,
    "place_sound_type": 329,
    "hit_sound_type": 327,
    "fall_sound_type": 326
  }
}