{
  "minecraft:armorer": {
    "id": 0,
    "matching_states": [
      18428,
      18429,
      18430,
      18431,
      18432,
      18433,
      18434,
      18435
    ]
  },
  "minecraft:butcher": {
    "id": 1,
    "matching_states": [
      18420,
      18421,
      18422,
      18423,
      18424,
      18425,
      18426,
      18427
    ]
  },
  "minecraft:cartographer": {
    "id": 2,
    "matching_states": [
      18436
    ]
  },
  "minecraft:cleric": {
    "id": 3,
    "matching_states": [
      7390,
      7391,
      7392,
      7393,
      7394,
      7395,
      7396,
      7397
    ]
  },
  "minecraft:farmer": {
    "id": 4,
    "matching_states": [
      19372,
      19373,
      19374,
      19375,
      19376,
      19377,
      19378,
      19379,
      19380
    ]
  },
  "minecraft:fisherman": {
    "id": 5,
    "matching_states": [
      18408,
      18409,
      18410,
      18411,
      18412,
      18413,
      18414,
      18415,
      18416,
      18417,
      18418,
      18419
    ]
  },
  "minecraft:fletcher": {
    "id": 6,
    "matching_states": [
      18437
    ]
  },
  "minecraft:leatherworker": {
    "id": 7,
    "matching_states": [
      7398,
      7399,
      7400,
      7401,
      7402,
      7403,
      7404,
      7405
    ]
  },
  "minecraft:librarian": {
    "id": 8,
    "matching_states": [
      18450,
      18451,
      18452,
      18453,
      18454,
      18455,
      18456,
      18457,
      18458,
      18459,
      18460,
      18461,
      18462,
      18463,
      18464,
      18465
    ]
  },
  "minecraft:mason": {
    "id": 9,
    "matching_states": [
      18467,
      18468,
      18469,
      18470
    ]
  },
  "minecraft:shepherd": {
    "id": 10,
    "matching_states": [
      18404,
      18405,
      18406,
      18407
    ]
  },
  "minecraft:toolsmith": {
    "id": 11,
    "matching_states": [
      18466
    ]
  },
  "minecraft:weaponsmith": {
    "id": 12,
    "matching_states": [
      18438,
      18439,
      18440,
      18441,
      18442,
      18443,
      18444,
      18445,
      18446,
      18447,
      18448,
      18449
    ]
  },
  "minecraft:home": {
    "id": 13,
    "matching_states": [
      1688,
      1690,
      1692,
      1694,
      1696,
      1698,
      1700,
      1702,
      1704,
      1706,
      1708,
      1710,
      1712,
      1714,
      1716,
      1718,
      1720,
      1722,
      1724,
      1726,
      1728,
      1730,
      1732,
      1734,
      1736,
      1738,
      1740,
      1742,
      1744,
      1746,
      1748,
      1750,
      1752,
      1754,
      1756,
      1758,
      1760,
      1762,
      1764,
      1766,
      1768,
      1770,
      1772,
      1774,
      1776,
      1778,
      1780,
      1782,
      1784,
      1786,
      1788,
      1790,
      1792,
      1794,
      1796,
      1798,
      1800,
      1802,
      1804,
      1806,
      1808,
      1810,
      1812,
      1814,
      1816,
      1818,
      1820,
      1822,
      1824,
      1826,
      1828,
      1830,
      1832,
      1834,
      1836,
      1838,
      1840,
      1842,
      1844,
      1846,
      1848,
      1850,
      1852,
      1854,
      1856,
      1858,
      1860,
      1862,
      1864,
      1866,
      1868,
      1870,
      1872,
      1874,
      1876,
      1878,
      1880,
      1882,
      1884,
      1886,
      1888,
      1890,
      1892,
      1894,
      1896,
      1898,
      1900,
      1902,
      1904,
      1906,
      1908,
      1910,
      1912,
      1914,
      1916,
      1918,
      1920,
      1922,
      1924,
      1926,
      1928,
      1930,
      1932,
      1934,
      1936,
      1938,
      1940,
      1942
    ]
  },
  "minecraft:meeting": {
    "id": 14,
    "matching_states": [
      18471,
      18472,
      18473,
      18474,
      18475,
      18476,
      18477,
      18478,
      18479,
      18480,
      18481,
      18482,
      18483,
      18484,
      18485,
      18486,
      18487,
      18488,
      18489,
      18490,
      18491,
      18492,
      18493,
      18494,
      18495,
      18496,
      18497,
      18498,
      18499,
      18500,
      18501,
      18502
    ]
  },
  "minecraft:beehive": {
    "id": 15,
    "matching_states": [
      19421,
      19422,
      19423,
      19424,
      19425,
      19426,
      19427,
      19428,
      19429,
      19430,
      19431,
      19432,
      19433,
      19434,
      19435,
      19436,
      19437,
      19438,
      19439,
      19440,
      19441,
      19442,
      19443,
      19444
    ]
  },
  "minecraft:bee_nest": {
    "id": 16,
    "matching_states": [
      19397,
      19398,
      19399,
      19400,
      19401,
      19402,
      19403,
      19404,
      19405,
      19406,
      19407,
      19408,
      19409,
      19410,
      19411,
      19412,
      19413,
      19414,
      19415,
      19416,
      19417,
      19418,
      19419,
      19420
    ]
  },
  "minecraft:nether_portal": {
    "id": 17,
    "matching_states": [
      5864,
      5865
    ]
  },
  "minecraft:lodestone": {
    "id": 18,
    "matching_states": [
      19459
    ]
  },
  "minecraft:lightning_rod": {
    "id": 19,
    "matching_states": [
      24716,
      24717,
      24718,
      24719,
      24720,
      24721,
      24722,
      24723,
      24724,
      24725,
      24726,
      24727,
      24728,
      24729,
      24730,
      24731,
      24732,
      24733,
      24734,
      24735,
      24736,
      24737,
      24738,
      24739
    ]
  }
}