{
  "0": "BYTE",
  "1": "INTEGER",
  "2": "LONG",
  "3": "FLOAT",
  "4": "STRING",
  "5": "TEXT_COMPONENT",
  "6": "OPTIONAL_TEXT_COMPONENT",
  "7": "ITEM_STACK",
  "8": "BOOLEAN",
  "9": "ROTATION",
  "10": "VEC3I",
  "11": "OPTIONAL_VEC3I",
  "12": "DIRECTION",
  "13": "OPTIONAL_UUID",
  "14": "BLOCK_STATE",
  "15": "OPTIONAL_BLOCK_STATE",
  "16": "NBT",
  "17": "PARTICLE",
  "18": "VILLAGER_DATA",
  "19": "OPTIONAL_INTEGER",
  "20": "POSE",
  "21": "CAT_VARIANT",
  "22": "FROG_VARIANT",
  "23": "OPTIONAL_GLOBAL_POSITION",
  "24": "MOTIF",
  "25": "SNIFFER_STATE",
  "26": "VEC3F",
  "27": "QUATERNIONF"
}