{
  "minecraft:armorer": {
    "id": 0,
    "matching_states": [
      17800,
      17801,
      17802,
      17803,
      17804,
      17805,
      17806,
      17807
    ]
  },
  "minecraft:butcher": {
    "id": 1,
    "matching_states": [
      17792,
      17793,
      17794,
      17795,
      17796,
      17797,
      17798,
      17799
    ]
  },
  "minecraft:cartographer": {
    "id": 2,
    "matching_states": [
      17808
    ]
  },
  "minecraft:cleric": {
    "id": 3,
    "matching_states": [
      7160,
      7161,
      7162,
      7163,
      7164,
      7165,
      7166,
      7167
    ]
  },
  "minecraft:farmer": {
    "id": 4,
    "matching_states": [
      18744,
      18745,
      18746,
      18747,
      18748,
      18749,
      18750,
      18751,
      18752
    ]
  },
  "minecraft:fisherman": {
    "id": 5,
    "matching_states": [
      17780,
      17781,
      17782,
      17783,
      17784,
      17785,
      17786,
      17787,
      17788,
      17789,
      17790,
      17791
    ]
  },
  "minecraft:fletcher": {
    "id": 6,
    "matching_states": [
      17809
    ]
  },
  "minecraft:leatherworker": {
    "id": 7,
    "matching_states": [
      7168,
      7169,
      7170,
      7171,
      7172,
      7173,
      7174,
      7175
    ]
  },
  "minecraft:librarian": {
    "id": 8,
    "matching_states": [
      17822,
      17823,
      17824,
      17825,
      17826,
      17827,
      17828,
      17829,
      17830,
      17831,
      17832,
      17833,
      17834,
      17835,
      17836,
      17837
    ]
  },
  "minecraft:mason": {
    "id": 9,
    "matching_states": [
      17839,
      17840,
      17841,
      17842
    ]
  },
  "minecraft:shepherd": {
    "id": 10,
    "matching_states": [
      17776,
      17777,
      17778,
      17779
    ]
  },
  "minecraft:toolsmith": {
    "id": 11,
    "matching_states": [
      17838
    ]
  },
  "minecraft:weaponsmith": {
    "id": 12,
    "matching_states": [
      17810,
      17811,
      17812,
      17813,
      17814,
      17815,
      17816,
      17817,
      17818,
      17819,
      17820,
      17821
    ]
  },
  "minecraft:home": {
    "id": 13,
    "matching_states": [
      1637,
      1639,
      1641,
      1643,
      1645,
      1647,
      1649,
      1651,
      1653,
      1655,
      1657,
      1659,
      1661,
      1663,
      1665,
      1667,
      1669,
      1671,
      1673,
      1675,
      1677,
      1679,
      1681,
      1683,
      1685,
      1687,
      1689,
      1691,
      1693,
      1695,
      1697,
      1699,
      1701,
      1703,
      1705,
      1707,
      1709,
      1711,
      1713,
      1715,
      1717,
      1719,
      1721,
      1723,
      1725,
      1727,
      1729,
      1731,
      1733,
      1735,
      1737,
      1739,
      1741,
      1743,
      1745,
      1747,
      1749,
      1751,
      1753,
      1755,
      1757,
      1759,
      1761,
      1763,
      1765,
      1767,
      1769,
      1771,
      1773,
      1775,
      1777,
      1779,
      1781,
      1783,
      1785,
      1787,
      1789,
      1791,
      1793,
      1795,
      1797,
      1799,
      1801,
      1803,
      1805,
      1807,
      1809,
      1811,
      1813,
      1815,
      1817,
      1819,
      1821,
      1823,
      1825,
      1827,
      1829,
      1831,
      1833,
      1835,
      1837,
      1839,
      1841,
      1843,
      1845,
      1847,
      1849,
      1851,
      1853,
      1855,
      1857,
      1859,
      1861,
      1863,
      1865,
      1867,
      1869,
      1871,
      1873,
      1875,
      1877,
      1879,
      1881,
      1883,
      1885,
      1887,
      1889,
      1891
    ]
  },
  "minecraft:meeting": {
    "id": 14,
    "matching_states": [
      17843,
      17844,
      17845,
      17846,
      17847,
      17848,
      17849,
      17850,
      17851,
      17852,
      17853,
      17854,
      17855,
      17856,
      17857,
      17858,
      17859,
      17860,
      17861,
      17862,
      17863,
      17864,
      17865,
      17866,
      17867,
      17868,
      17869,
      17870,
      17871,
      17872,
      17873,
      17874
    ]
  },
  "minecraft:beehive": {
    "id": 15,
    "matching_states": [
      18793,
      18794,
      18795,
      18796,
      18797,
      18798,
      18799,
      18800,
      18801,
      18802,
      18803,
      18804,
      18805,
      18806,
      18807,
      18808,
      18809,
      18810,
      18811,
      18812,
      18813,
      18814,
      18815,
      18816
    ]
  },
  "minecraft:bee_nest": {
    "id": 16,
    "matching_states": [
      18769,
      18770,
      18771,
      18772,
      18773,
      18774,
      18775,
      18776,
      18777,
      18778,
      18779,
      18780,
      18781,
      18782,
      18783,
      18784,
      18785,
      18786,
      18787,
      18788,
      18789,
      18790,
      18791,
      18792
    ]
  },
  "minecraft:nether_portal": {
    "id": 17,
    "matching_states": [
      5699,
      5700
    ]
  },
  "minecraft:lodestone": {
    "id": 18,
    "matching_states": [
      18831
    ]
  },
  "minecraft:lightning_rod": {
    "id": 19,
    "matching_states": [
      21398,
      21399,
      21400,
      21401,
      21402,
      21403,
      21404,
      21405,
      21406,
      21407,
      21408,
      21409,
      21410,
      21411,
      21412,
      21413,
      21414,
      21415,
      21416,
      21417,
      21418,
      21419,
      21420,
      21421
    ]
  }
}