{
  "fire_burn_chances": {
    "13": 5,
    "14": 5,
    "15": 5,
    "16": 5,
    "17": 5,
    "18": 5,
    "19": 5,
    "20": 5,
    "21": 5,
    "22": 5,
    "45": 5,
    "46": 5,
    "47": 5,
    "48": 5,
    "49": 5,
    "50": 5,
    "51": 5,
    "52": 5,
    "53": 5,
    "55": 5,
    "56": 5,
    "57": 5,
    "58": 5,
    "59": 5,
    "60": 5,
    "61": 5,
    "62": 5,
    "63": 5,
    "64": 5,
    "65": 5,
    "66": 5,
    "67": 5,
    "68": 5,
    "69": 5,
    "70": 5,
    "71": 5,
    "72": 5,
    "73": 5,
    "74": 5,
    "75": 5,
    "76": 5,
    "77": 5,
    "78": 5,
    "79": 5,
    "80": 5,
    "81": 30,
    "82": 30,
    "83": 30,
    "84": 30,
    "85": 30,
    "86": 30,
    "87": 30,
    "88": 30,
    "89": 30,
    "90": 30,
    "122": 60,
    "123": 60,
    "124": 60,
    "129": 30,
    "130": 30,
    "131": 30,
    "132": 30,
    "133": 30,
    "134": 30,
    "135": 30,
    "136": 30,
    "137": 30,
    "138": 30,
    "139": 30,
    "140": 30,
    "141": 30,
    "142": 30,
    "143": 30,
    "144": 30,
    "146": 60,
    "148": 60,
    "149": 60,
    "150": 60,
    "151": 60,
    "152": 60,
    "153": 60,
    "154": 60,
    "155": 60,
    "156": 60,
    "157": 60,
    "158": 60,
    "159": 60,
    "165": 15,
    "166": 30,
    "175": 5,
    "253": 5,
    "316": 15,
    "317": 15,
    "318": 5,
    "347": 5,
    "348": 5,
    "349": 5,
    "456": 5,
    "457": 5,
    "458": 5,
    "459": 5,
    "460": 5,
    "461": 5,
    "476": 60,
    "477": 60,
    "478": 60,
    "479": 60,
    "480": 60,
    "481": 60,
    "482": 60,
    "483": 60,
    "484": 60,
    "485": 60,
    "486": 60,
    "487": 60,
    "488": 60,
    "489": 60,
    "490": 60,
    "491": 60,
    "492": 60,
    "494": 5,
    "496": 60,
    "497": 60,
    "498": 60,
    "499": 60,
    "500": 60,
    "501": 60,
    "538": 5,
    "539": 5,
    "540": 5,
    "541": 5,
    "542": 5,
    "543": 5,
    "544": 5,
    "545": 5,
    "546": 5,
    "547": 5,
    "566": 5,
    "567": 5,
    "568": 5,
    "569": 5,
    "570": 5,
    "571": 5,
    "572": 5,
    "573": 5,
    "574": 5,
    "575": 5,
    "576": 5,
    "577": 5,
    "578": 5,
    "579": 5,
    "580": 5,
    "581": 5,
    "677": 30,
    "723": 60,
    "768": 60,
    "776": 30,
    "784": 60,
    "830": 5,
    "831": 15,
    "832": 30,
    "833": 5,
    "951": 15,
    "952": 15,
    "953": 60,
    "954": 30,
    "955": 30,
    "957": 60,
    "959": 60,
    "960": 60,
    "961": 60,
    "962": 30
  },
  "fire_spread_chances": {
    "13": 20,
    "14": 20,
    "15": 20,
    "16": 20,
    "17": 20,
    "18": 20,
    "19": 20,
    "20": 20,
    "21": 20,
    "22": 20,
    "45": 5,
    "46": 5,
    "47": 5,
    "48": 5,
    "49": 5,
    "50": 5,
    "51": 5,
    "52": 5,
    "53": 20,
    "55": 5,
    "56": 5,
    "57": 5,
    "58": 5,
    "59": 5,
    "60": 5,
    "61": 5,
    "62": 5,
    "63": 5,
    "64": 5,
    "65": 5,
    "66": 5,
    "67": 5,
    "68": 5,
    "69": 5,
    "70": 5,
    "71": 5,
    "72": 5,
    "73": 5,
    "74": 5,
    "75": 5,
    "76": 5,
    "77": 5,
    "78": 5,
    "79": 5,
    "80": 5,
    "81": 60,
    "82": 60,
    "83": 60,
    "84": 60,
    "85": 60,
    "86": 60,
    "87": 60,
    "88": 60,
    "89": 60,
    "90": 60,
    "122": 100,
    "123": 100,
    "124": 100,
    "129": 60,
    "130": 60,
    "131": 60,
    "132": 60,
    "133": 60,
    "134": 60,
    "135": 60,
    "136": 60,
    "137": 60,
    "138": 60,
    "139": 60,
    "140": 60,
    "141": 60,
    "142": 60,
    "143": 60,
    "144": 60,
    "146": 100,
    "148": 100,
    "149": 100,
    "150": 100,
    "151": 100,
    "152": 100,
    "153": 100,
    "154": 100,
    "155": 100,
    "156": 100,
    "157": 100,
    "158": 100,
    "159": 100,
    "165": 100,
    "166": 20,
    "175": 20,
    "253": 20,
    "316": 100,
    "317": 100,
    "318": 20,
    "347": 20,
    "348": 20,
    "349": 20,
    "456": 20,
    "457": 20,
    "458": 20,
    "459": 20,
    "460": 20,
    "461": 20,
    "476": 20,
    "477": 20,
    "478": 20,
    "479": 20,
    "480": 20,
    "481": 20,
    "482": 20,
    "483": 20,
    "484": 20,
    "485": 20,
    "486": 20,
    "487": 20,
    "488": 20,
    "489": 20,
    "490": 20,
    "491": 20,
    "492": 20,
    "494": 5,
    "496": 100,
    "497": 100,
    "498": 100,
    "499": 100,
    "500": 100,
    "501": 100,
    "538": 20,
    "539": 20,
    "540": 20,
    "541": 20,
    "542": 20,
    "543": 20,
    "544": 20,
    "545": 20,
    "546": 20,
    "547": 20,
    "566": 20,
    "567": 20,
    "568": 20,
    "569": 20,
    "570": 20,
    "571": 20,
    "572": 20,
    "573": 20,
    "574": 20,
    "575": 20,
    "576": 20,
    "577": 20,
    "578": 20,
    "579": 20,
    "580": 20,
    "581": 20,
    "677": 60,
    "723": 60,
    "768": 60,
    "776": 20,
    "784": 100,
    "830": 20,
    "831": 20,
    "832": 20,
    "833": 20,
    "951": 60,
    "952": 60,
    "953": 100,
    "954": 60,
    "955": 60,
    "957": 100,
    "959": 100,
    "960": 100,
    "961": 100,
    "962": 60
  },
  "fuel_time": {
    "34": 300,
    "67": 16000,
    "117": 300,
    "174": 100,
    "175": 100,
    "176": 100,
    "227": 50,
    "237": 150,
    "262": 300,
    "263": 300,
    "275": 300,
    "276": 300,
    "279": 300,
    "286": 300,
    "368": 300,
    "631": 50,
    "645": 300,
    "649": 300,
    "652": 300,
    "655": 300,
    "756": 300,
    "758": 1600,
    "759": 1600,
    "773": 200,
    "774": 200,
    "775": 200,
    "776": 200,
    "777": 200,
    "803": 100,
    "804": 100,
    "866": 20000,
    "879": 4001,
    "887": 300,
    "949": 2400,
    "1137": 300,
    "1139": 300,
    "1147": 300,
    "1148": 300,
    "1151": 300,
    "1152": 300,
    "1154": 300
  },
  "map_color": [
    0,
    8368696,
    16247203,
    13092807,
    16711680,
    10526975,
    10987431,
    31744,
    16777215,
    10791096,
    9923917,
    7368816,
    4210943,
    9402184,
    16776437,
    14188339,
    11685080,
    6724056,
    15066419,
    8375321,
    15892389,
    5000268,
    10066329,
    5013401,
    8339378,
    3361970,
    6704179,
    6717235,
    10040115,
    1644825,
    16445005,
    6085589,
    4882687,
    55610,
    8476209,
    7340544,
    13742497,
    10441252,
    9787244,
    7367818,
    12223780,
    6780213,
    10505550,
    3746083,
    8874850,
    5725276,
    8014168,
    4996700,
    4993571,
    5001770,
    9321518,
    2430480,
    12398641,
    9715553,
    6035741,
    1474182,
    3837580,
    5647422,
    1356933,
    6579300,
    14200723,
    8365974,
    -1,
    -1
  ]
}