{
  "minecraft:speed": {
    "id": 0,
    "color": 3402751,
    "translation_key": "effect.minecraft.speed",
    "attributes": {
      "minecraft:generic.movement_speed": {
        "uuid": "91aeaa56-376b-4498-935b-2f7f68070635",
        "amount": 0.4000000059604645,
        "operation": "multiply_total"
      }
    }
  },
  "minecraft:slowness": {
    "id": 1,
    "color": 9154528,
    "translation_key": "effect.minecraft.slowness",
    "attributes": {
      "minecraft:generic.movement_speed": {
        "uuid": "7107de5e-7ce8-4030-940e-514c1f160890",
        "amount": -0.30000001192092896,
        "operation": "multiply_total"
      }
    }
  },
  "minecraft:haste": {
    "id": 2,
    "color": 14270531,
    "translation_key": "effect.minecraft.haste",
    "attributes": {
      "minecraft:generic.attack_speed": {
        "uuid": "af8b6e3f-3328-4c0a-aa36-5ba2bb9dbef3",
        "amount": 0.20000000298023224,
        "operation": "multiply_total"
      }
    }
  },
  "minecraft:mining_fatigue": {
    "id": 3,
    "color": 4866583,
    "translation_key": "effect.minecraft.mining_fatigue",
    "attributes": {
      "minecraft:generic.attack_speed": {
        "uuid": "55fced67-e92a-486e-9800-b47f202c4386",
        "amount": -0.20000000298023224,
        "operation": "multiply_total"
      }
    }
  },
  "minecraft:strength": {
    "id": 4,
    "color": 16762624,
    "translation_key": "effect.minecraft.strength",
    "attributes": {
      "minecraft:generic.attack_damage": {
        "uuid": "648d7064-6a60-4f59-8abe-c2c23a6dd7a9",
        "amount": 6.0,
        "operation": "addition"
      }
    }
  },
  "minecraft:instant_health": {
    "id": 5,
    "color": 16262179,
    "translation_key": "effect.minecraft.instant_health"
  },
  "minecraft:instant_damage": {
    "id": 6,
    "color": 11101546,
    "translation_key": "effect.minecraft.instant_damage"
  },
  "minecraft:jump_boost": {
    "id": 7,
    "color": 16646020,
    "translation_key": "effect.minecraft.jump_boost"
  },
  "minecraft:nausea": {
    "id": 8,
    "color": 5578058,
    "translation_key": "effect.minecraft.nausea"
  },
  "minecraft:regeneration": {
    "id": 9,
    "color": 13458603,
    "translation_key": "effect.minecraft.regeneration"
  },
  "minecraft:resistance": {
    "id": 10,
    "color": 9520880,
    "translation_key": "effect.minecraft.resistance"
  },
  "minecraft:fire_resistance": {
    "id": 11,
    "color": 16750848,
    "translation_key": "effect.minecraft.fire_resistance"
  },
  "minecraft:water_breathing": {
    "id": 12,
    "color": 10017472,
    "translation_key": "effect.minecraft.water_breathing"
  },
  "minecraft:invisibility": {
    "id": 13,
    "color": 16185078,
    "translation_key": "effect.minecraft.invisibility"
  },
  "minecraft:blindness": {
    "id": 14,
    "color": 2039587,
    "translation_key": "effect.minecraft.blindness"
  },
  "minecraft:night_vision": {
    "id": 15,
    "color": 12779366,
    "translation_key": "effect.minecraft.night_vision"
  },
  "minecraft:hunger": {
    "id": 16,
    "color": 5797459,
    "translation_key": "effect.minecraft.hunger"
  },
  "minecraft:weakness": {
    "id": 17,
    "color": 4738376,
    "translation_key": "effect.minecraft.weakness",
    "attributes": {
      "minecraft:generic.attack_damage": {
        "uuid": "22653b89-116e-49dc-9b6b-9971489b5be5",
        "amount": -8.0,
        "operation": "addition"
      }
    }
  },
  "minecraft:poison": {
    "id": 18,
    "color": 8889187,
    "translation_key": "effect.minecraft.poison"
  },
  "minecraft:wither": {
    "id": 19,
    "color": 7561558,
    "translation_key": "effect.minecraft.wither"
  },
  "minecraft:health_boost": {
    "id": 20,
    "color": 16284963,
    "translation_key": "effect.minecraft.health_boost",
    "attributes": {
      "minecraft:generic.max_health": {
        "uuid": "5d6f0ba2-1186-46ac-b896-c61c5cee99cc",
        "amount": 8.0,
        "operation": "addition"
      }
    }
  },
  "minecraft:absorption": {
    "id": 21,
    "color": 2445989,
    "translation_key": "effect.minecraft.absorption",
    "attributes": {
      "minecraft:generic.max_absorption": {
        "uuid": "eae29cf0-701e-4ed6-883a-96f798f3dab5",
        "amount": 8.0,
        "operation": "addition"
      }
    }
  },
  "minecraft:saturation": {
    "id": 22,
    "color": 16262179,
    "translation_key": "effect.minecraft.saturation"
  },
  "minecraft:glowing": {
    "id": 23,
    "color": 9740385,
    "translation_key": "effect.minecraft.glowing"
  },
  "minecraft:levitation": {
    "id": 24,
    "color": 13565951,
    "translation_key": "effect.minecraft.levitation"
  },
  "minecraft:luck": {
    "id": 25,
    "color": 5882118,
    "translation_key": "effect.minecraft.luck",
    "attributes": {
      "minecraft:generic.luck": {
        "uuid": "03c3c89d-7037-4b42-869f-b146bcb64d2e",
        "amount": 2.0,
        "operation": "addition"
      }
    }
  },
  "minecraft:unluck": {
    "id": 26,
    "color": 12624973,
    "translation_key": "effect.minecraft.unluck",
    "attributes": {
      "minecraft:generic.luck": {
        "uuid": "cc5af142-2bd2-4215-b636-2605aed11727",
        "amount": -2.0,
        "operation": "addition"
      }
    }
  },
  "minecraft:slow_falling": {
    "id": 27,
    "color": 15978425,
    "translation_key": "effect.minecraft.slow_falling"
  },
  "minecraft:conduit_power": {
    "id": 28,
    "color": 1950417,
    "translation_key": "effect.minecraft.conduit_power"
  },
  "minecraft:dolphins_grace": {
    "id": 29,
    "color": 8954814,
    "translation_key": "effect.minecraft.dolphins_grace"
  },
  "minecraft:bad_omen": {
    "id": 30,
    "color": 745784,
    "translation_key": "effect.minecraft.bad_omen"
  },
  "minecraft:hero_of_the_village": {
    "id": 31,
    "color": 4521796,
    "translation_key": "effect.minecraft.hero_of_the_village"
  },
  "minecraft:darkness": {
    "id": 32,
    "color": 2696993,
    "translation_key": "effect.minecraft.darkness"
  }
}