{
  "minecraft:furnace": {
    "id": 0,
    "blocks": [
      185
    ]
  },
  "minecraft:chest": {
    "id": 1,
    "blocks": [
      177
    ]
  },
  "minecraft:trapped_chest": {
    "id": 2,
    "blocks": [
      411
    ]
  },
  "minecraft:ender_chest": {
    "id": 3,
    "blocks": [
      344
    ]
  },
  "minecraft:jukebox": {
    "id": 4,
    "blocks": [
      253
    ]
  },
  "minecraft:dispenser": {
    "id": 5,
    "blocks": [
      98
    ]
  },
  "minecraft:dropper": {
    "id": 6,
    "blocks": [
      424
    ]
  },
  "minecraft:sign": {
    "id": 7,
    "blocks": [
      186,
      187,
      188,
      189,
      190,
      191,
      192,
      193,
      194,
      199,
      200,
      201,
      202,
      203,
      204,
      205,
      206,
      207,
      828,
      829,
      830,
      831
    ]
  },
  "minecraft:hanging_sign": {
    "id": 8,
    "blocks": [
      208,
      209,
      210,
      211,
      212,
      213,
      214,
      215,
      216,
      217,
      218,
      219,
      220,
      221,
      222,
      223,
      224,
      225,
      226,
      227,
      228,
      229
    ]
  },
  "minecraft:mob_spawner": {
    "id": 9,
    "blocks": [
      175
    ]
  },
  "minecraft:piston": {
    "id": 10,
    "blocks": [
      146
    ]
  },
  "minecraft:brewing_stand": {
    "id": 11,
    "blocks": [
      330
    ]
  },
  "minecraft:enchanting_table": {
    "id": 12,
    "blocks": [
      329
    ]
  },
  "minecraft:end_portal": {
    "id": 13,
    "blocks": [
      335
    ]
  },
  "minecraft:beacon": {
    "id": 14,
    "blocks": [
      352
    ]
  },
  "minecraft:skull": {
    "id": 15,
    "blocks": [
      394,
      395,
      396,
      397,
      398,
      399,
      400,
      401,
      402,
      403,
      404,
      405,
      406,
      407
    ]
  },
  "minecraft:daylight_detector": {
    "id": 16,
    "blocks": [
      415
    ]
  },
  "minecraft:hopper": {
    "id": 17,
    "blocks": [
      418
    ]
  },
  "minecraft:comparator": {
    "id": 18,
    "blocks": [
      414
    ]
  },
  "minecraft:banner": {
    "id": 19,
    "blocks": [
      503,
      504,
      505,
      506,
      507,
      508,
      509,
      510,
      511,
      512,
      513,
      514,
      515,
      516,
      517,
      518,
      519,
      520,
      521,
      522,
      523,
      524,
      525,
      526,
      527,
      528,
      529,
      530,
      531,
      532,
      533,
      534
    ]
  },
  "minecraft:structure_block": {
    "id": 20,
    "blocks": [
      832
    ]
  },
  "minecraft:end_gateway": {
    "id": 21,
    "blocks": [
      603
    ]
  },
  "minecraft:command_block": {
    "id": 22,
    "blocks": [
      351,
      604,
      605
    ]
  },
  "minecraft:shulker_box": {
    "id": 23,
    "blocks": [
      613,
      614,
      615,
      616,
      617,
      618,
      619,
      620,
      621,
      622,
      623,
      624,
      625,
      626,
      627,
      628,
      629
    ]
  },
  "minecraft:bed": {
    "id": 24,
    "blocks": [
      103,
      104,
      105,
      106,
      107,
      108,
      109,
      110,
      111,
      112,
      113,
      114,
      115,
      116,
      117,
      118
    ]
  },
  "minecraft:conduit": {
    "id": 25,
    "blocks": [
      725
    ]
  },
  "minecraft:barrel": {
    "id": 26,
    "blocks": [
      774
    ]
  },
  "minecraft:smoker": {
    "id": 27,
    "blocks": [
      775
    ]
  },
  "minecraft:blast_furnace": {
    "id": 28,
    "blocks": [
      776
    ]
  },
  "minecraft:lectern": {
    "id": 29,
    "blocks": [
      780
    ]
  },
  "minecraft:bell": {
    "id": 30,
    "blocks": [
      783
    ]
  },
  "minecraft:jigsaw": {
    "id": 31,
    "blocks": [
      833
    ]
  },
  "minecraft:campfire": {
    "id": 32,
    "blocks": [
      786,
      787
    ]
  },
  "minecraft:beehive": {
    "id": 33,
    "blocks": [
      836,
      837
    ]
  },
  "minecraft:sculk_sensor": {
    "id": 34,
    "blocks": [
      913
    ]
  },
  "minecraft:calibrated_sculk_sensor": {
    "id": 35,
    "blocks": [
      914
    ]
  },
  "minecraft:sculk_catalyst": {
    "id": 36,
    "blocks": [
      917
    ]
  },
  "minecraft:sculk_shrieker": {
    "id": 37,
    "blocks": [
      918
    ]
  },
  "minecraft:chiseled_bookshelf": {
    "id": 38,
    "blocks": [
      168
    ]
  },
  "minecraft:brushable_block": {
    "id": 39,
    "blocks": [
      35,
      38
    ]
  },
  "minecraft:decorated_pot": {
    "id": 40,
    "blocks": [
      1002
    ]
  }
}