{
  "minecraft:empty": {
    "id": 0,
    "class": "EmptyFluid"
  },
  "minecraft:flowing_water": {
    "id": 1,
    "bucket": 869,
    "drip_particle_type": 12,
    "class": "WaterFluid$Flowing"
  },
  "minecraft:water": {
    "id": 2,
    "bucket": 869,
    "drip_particle_type": 12,
    "class": "WaterFluid$Still"
  },
  "minecraft:flowing_lava": {
    "id": 3,
    "bucket": 870,
    "drip_particle_type": 9,
    "class": "LavaFluid$Flowing"
  },
  "minecraft:lava": {
    "id": 4,
    "bucket": 870,
    "drip_particle_type": 9,
    "class": "LavaFluid$Still"
  }
}