{
  "minecraft:none": {
    "id": 0,
    "work_station": -1
  },
  "minecraft:armorer": {
    "id": 1,
    "work_station": -1,
    "work_sound": 1253
  },
  "minecraft:butcher": {
    "id": 2,
    "work_station": -1,
    "work_sound": 1254
  },
  "minecraft:cartographer": {
    "id": 3,
    "work_station": -1,
    "work_sound": 1255
  },
  "minecraft:cleric": {
    "id": 4,
    "work_station": -1,
    "work_sound": 1256
  },
  "minecraft:farmer": {
    "id": 5,
    "work_station": -1,
    "requested_items": [
      788,
      789,
      893,
      1079
    ],
    "blocks": [
      174
    ],
    "work_sound": 1257
  },
  "minecraft:fisherman": {
    "id": 6,
    "work_station": -1,
    "work_sound": 1258
  },
  "minecraft:fletcher": {
    "id": 7,
    "work_station": -1,
    "work_sound": 1259
  },
  "minecraft:leatherworker": {
    "id": 8,
    "work_station": -1,
    "work_sound": 1260
  },
  "minecraft:librarian": {
    "id": 9,
    "work_station": -1,
    "work_sound": 1261
  },
  "minecraft:mason": {
    "id": 10,
    "work_station": -1,
    "work_sound": 1262
  },
  "minecraft:nitwit": {
    "id": 11,
    "work_station": -1
  },
  "minecraft:shepherd": {
    "id": 12,
    "work_station": -1,
    "work_sound": 1263
  },
  "minecraft:toolsmith": {
    "id": 13,
    "work_station": -1,
    "work_sound": 1264
  },
  "minecraft:weaponsmith": {
    "id": 14,
    "work_station": -1,
    "work_sound": 1265
  }
}