{
  "minecraft:chat": {
    "id": 0,
    "chat": {
      "translation_key": "chat.type.text",
      "parameters": [
        "sender",
        "content"
      ]
    },
    "narration": {
      "translation_key": "chat.type.text.narrate",
      "parameters": [
        "sender",
        "content"
      ]
    }
  },
  "minecraft:say_command": {
    "id": 1,
    "chat": {
      "translation_key": "chat.type.announcement",
      "parameters": [
        "sender",
        "content"
      ]
    },
    "narration": {
      "translation_key": "chat.type.text.narrate",
      "parameters": [
        "sender",
        "content"
      ]
    }
  },
  "minecraft:msg_command_incoming": {
    "id": 2,
    "chat": {
      "translation_key": "commands.message.display.incoming",
      "parameters": [
        "sender",
        "content"
      ],
      "style": {
        "color": "gray",
        "italic": true
      }
    },
    "narration": {
      "translation_key": "chat.type.text.narrate",
      "parameters": [
        "sender",
        "content"
      ]
    }
  },
  "minecraft:msg_command_outgoing": {
    "id": 3,
    "chat": {
      "translation_key": "commands.message.display.outgoing",
      "parameters": [
        "target",
        "content"
      ],
      "style": {
        "color": "gray",
        "italic": true
      }
    },
    "narration": {
      "translation_key": "chat.type.text.narrate",
      "parameters": [
        "sender",
        "content"
      ]
    }
  },
  "minecraft:team_msg_command": {
    "id": 4,
    "chat": {
      "translation_key": "chat.type.team.text",
      "parameters": [
        "target",
        "sender",
        "content"
      ]
    },
    "narration": {
      "translation_key": "chat.type.text.narrate",
      "parameters": [
        "sender",
        "content"
      ]
    }
  },
  "minecraft:emote_command": {
    "id": 5,
    "chat": {
      "translation_key": "chat.type.emote",
      "parameters": [
        "sender",
        "content"
      ]
    },
    "narration": {
      "translation_key": "chat.type.emote",
      "parameters": [
        "sender",
        "content"
      ]
    }
  }
}