{
  "minecraft:armorer": {
    "id": 0,
    "matching_states": [
      18287,
      18288,
      18289,
      18290,
      18291,
      18292,
      18293,
      18294
    ]
  },
  "minecraft:butcher": {
    "id": 1,
    "matching_states": [
      18279,
      18280,
      18281,
      18282,
      18283,
      18284,
      18285,
      18286
    ]
  },
  "minecraft:cartographer": {
    "id": 2,
    "matching_states": [
      18295
    ]
  },
  "minecraft:cleric": {
    "id": 3,
    "matching_states": [
      7390,
      7391,
      7392,
      7393,
      7394,
      7395,
      7396,
      7397
    ]
  },
  "minecraft:farmer": {
    "id": 4,
    "matching_states": [
      19231,
      19232,
      19233,
      19234,
      19235,
      19236,
      19237,
      19238,
      19239
    ]
  },
  "minecraft:fisherman": {
    "id": 5,
    "matching_states": [
      18267,
      18268,
      18269,
      18270,
      18271,
      18272,
      18273,
      18274,
      18275,
      18276,
      18277,
      18278
    ]
  },
  "minecraft:fletcher": {
    "id": 6,
    "matching_states": [
      18296
    ]
  },
  "minecraft:leatherworker": {
    "id": 7,
    "matching_states": [
      7398,
      7399,
      7400,
      7401,
      7402,
      7403,
      7404,
      7405
    ]
  },
  "minecraft:librarian": {
    "id": 8,
    "matching_states": [
      18309,
      18310,
      18311,
      18312,
      18313,
      18314,
      18315,
      18316,
      18317,
      18318,
      18319,
      18320,
      18321,
      18322,
      18323,
      18324
    ]
  },
  "minecraft:mason": {
    "id": 9,
    "matching_states": [
      18326,
      18327,
      18328,
      18329
    ]
  },
  "minecraft:shepherd": {
    "id": 10,
    "matching_states": [
      18263,
      18264,
      18265,
      18266
    ]
  },
  "minecraft:toolsmith": {
    "id": 11,
    "matching_states": [
      18325
    ]
  },
  "minecraft:weaponsmith": {
    "id": 12,
    "matching_states": [
      18297,
      18298,
      18299,
      18300,
      18301,
      18302,
      18303,
      18304,
      18305,
      18306,
      18307,
      18308
    ]
  },
  "minecraft:home": {
    "id": 13,
    "matching_states": [
      1688,
      1690,
      1692,
      1694,
      1696,
      1698,
      1700,
      1702,
      1704,
      1706,
      1708,
      1710,
      1712,
      1714,
      1716,
      1718,
      1720,
      1722,
      1724,
      1726,
      1728,
      1730,
      1732,
      1734,
      1736,
      1738,
      1740,
      1742,
      1744,
      1746,
      1748,
      1750,
      1752,
      1754,
      1756,
      1758,
      1760,
      1762,
      1764,
      1766,
      1768,
      1770,
      1772,
      1774,
      1776,
      1778,
      1780,
      1782,
      1784,
      1786,
      1788,
      1790,
      1792,
      1794,
      1796,
      1798,
      1800,
      1802,
      1804,
      1806,
      1808,
      1810,
      1812,
      1814,
      1816,
      1818,
      1820,
      1822,
      1824,
      1826,
      1828,
      1830,
      1832,
      1834,
      1836,
      1838,
      1840,
      1842,
      1844,
      1846,
      1848,
      1850,
      1852,
      1854,
      1856,
      1858,
      1860,
      1862,
      1864,
      1866,
      1868,
      1870,
      1872,
      1874,
      1876,
      1878,
      1880,
      1882,
      1884,
      1886,
      1888,
      1890,
      1892,
      1894,
      1896,
      1898,
      1900,
      1902,
      1904,
      1906,
      1908,
      1910,
      1912,
      1914,
      1916,
      1918,
      1920,
      1922,
      1924,
      1926,
      1928,
      1930,
      1932,
      1934,
      1936,
      1938,
      1940,
      1942
    ]
  },
  "minecraft:meeting": {
    "id": 14,
    "matching_states": [
      18330,
      18331,
      18332,
      18333,
      18334,
      18335,
      18336,
      18337,
      18338,
      18339,
      18340,
      18341,
      18342,
      18343,
      18344,
      18345,
      18346,
      18347,
      18348,
      18349,
      18350,
      18351,
      18352,
      18353,
      18354,
      18355,
      18356,
      18357,
      18358,
      18359,
      18360,
      18361
    ]
  },
  "minecraft:beehive": {
    "id": 15,
    "matching_states": [
      19280,
      19281,
      19282,
      19283,
      19284,
      19285,
      19286,
      19287,
      19288,
      19289,
      19290,
      19291,
      19292,
      19293,
      19294,
      19295,
      19296,
      19297,
      19298,
      19299,
      19300,
      19301,
      19302,
      19303
    ]
  },
  "minecraft:bee_nest": {
    "id": 16,
    "matching_states": [
      19256,
      19257,
      19258,
      19259,
      19260,
      19261,
      19262,
      19263,
      19264,
      19265,
      19266,
      19267,
      19268,
      19269,
      19270,
      19271,
      19272,
      19273,
      19274,
      19275,
      19276,
      19277,
      19278,
      19279
    ]
  },
  "minecraft:nether_portal": {
    "id": 17,
    "matching_states": [
      5865,
      5866
    ]
  },
  "minecraft:lodestone": {
    "id": 18,
    "matching_states": [
      19318
    ]
  },
  "minecraft:lightning_rod": {
    "id": 19,
    "matching_states": [
      22269,
      22270,
      22271,
      22272,
      22273,
      22274,
      22275,
      22276,
      22277,
      22278,
      22279,
      22280,
      22281,
      22282,
      22283,
      22284,
      22285,
      22286,
      22287,
      22288,
      22289,
      22290,
      22291,
      22292
    ]
  }
}