{
  "minecraft:air": {
    "color": 0,
    "push_reaction": "normal",
    "blocks_motion": false,
    "flammable": false,
    "liquid": false,
    "solid_blocking": false,
    "replaceable": true,
    "solid": false
  },
  "minecraft:structure_void": {
    "color": 0,
    "push_reaction": "normal",
    "blocks_motion": false,
    "flammable": false,
    "liquid": false,
    "solid_blocking": false,
    "replaceable": true,
    "solid": false
  },
  "minecraft:portal": {
    "color": 0,
    "push_reaction": "block",
    "blocks_motion": false,
    "flammable": false,
    "liquid": false,
    "solid_blocking": false,
    "replaceable": false,
    "solid": false
  },
  "minecraft:carpet": {
    "color": 13092807,
    "push_reaction": "normal",
    "blocks_motion": false,
    "flammable": true,
    "liquid": false,
    "solid_blocking": false,
    "replaceable": false,
    "solid": false
  },
  "minecraft:plant": {
    "color": 31744,
    "push_reaction": "destroy",
    "blocks_motion": false,
    "flammable": false,
    "liquid": false,
    "solid_blocking": false,
    "replaceable": false,
    "solid": false
  },
  "minecraft:underwater_plant": {
    "color": 4210943,
    "push_reaction": "destroy",
    "blocks_motion": false,
    "flammable": false,
    "liquid": false,
    "solid_blocking": false,
    "replaceable": false,
    "solid": false
  },
  "minecraft:replaceable_plant": {
    "color": 31744,
    "push_reaction": "destroy",
    "blocks_motion": false,
    "flammable": true,
    "liquid": false,
    "solid_blocking": false,
    "replaceable": true,
    "solid": false
  },
  "minecraft:nether_shoots": {
    "color": 31744,
    "push_reaction": "destroy",
    "blocks_motion": false,
    "flammable": false,
    "liquid": false,
    "solid_blocking": false,
    "replaceable": true,
    "solid": false
  },
  "minecraft:replaceable_underwater_plant": {
    "color": 4210943,
    "push_reaction": "destroy",
    "blocks_motion": false,
    "flammable": false,
    "liquid": false,
    "solid_blocking": false,
    "replaceable": true,
    "solid": false
  },
  "minecraft:water": {
    "color": 4210943,
    "push_reaction": "destroy",
    "blocks_motion": false,
    "flammable": false,
    "liquid": true,
    "solid_blocking": false,
    "replaceable": true,
    "solid": false
  },
  "minecraft:bubble_column": {
    "color": 4210943,
    "push_reaction": "destroy",
    "blocks_motion": false,
    "flammable": false,
    "liquid": true,
    "solid_blocking": false,
    "replaceable": true,
    "solid": false
  },
  "minecraft:lava": {
    "color": 16711680,
    "push_reaction": "destroy",
    "blocks_motion": false,
    "flammable": false,
    "liquid": true,
    "solid_blocking": false,
    "replaceable": true,
    "solid": false
  },
  "minecraft:snow_layer": {
    "color": 16777215,
    "push_reaction": "destroy",
    "blocks_motion": false,
    "flammable": false,
    "liquid": false,
    "solid_blocking": false,
    "replaceable": true,
    "solid": false
  },
  "minecraft:fire": {
    "color": 0,
    "push_reaction": "destroy",
    "blocks_motion": false,
    "flammable": false,
    "liquid": false,
    "solid_blocking": false,
    "replaceable": true,
    "solid": false
  },
  "minecraft:decoration": {
    "color": 0,
    "push_reaction": "destroy",
    "blocks_motion": false,
    "flammable": false,
    "liquid": false,
    "solid_blocking": false,
    "replaceable": false,
    "solid": false
  },
  "minecraft:cobweb": {
    "color": 13092807,
    "push_reaction": "destroy",
    "blocks_motion": false,
    "flammable": false,
    "liquid": false,
    "solid_blocking": false,
    "replaceable": false,
    "solid": true
  },
  "minecraft:sculk": {
    "color": 1644825,
    "push_reaction": "normal",
    "blocks_motion": true,
    "flammable": false,
    "liquid": false,
    "solid_blocking": true,
    "replaceable": false,
    "solid": true
  },
  "minecraft:redstone_lamp": {
    "color": 0,
    "push_reaction": "normal",
    "blocks_motion": true,
    "flammable": false,
    "liquid": false,
    "solid_blocking": true,
    "replaceable": false,
    "solid": true
  },
  "minecraft:organic_product": {
    "color": 10791096,
    "push_reaction": "normal",
    "blocks_motion": true,
    "flammable": false,
    "liquid": false,
    "solid_blocking": true,
    "replaceable": false,
    "solid": true
  },
  "minecraft:soil": {
    "color": 9923917,
    "push_reaction": "normal",
    "blocks_motion": true,
    "flammable": false,
    "liquid": false,
    "solid_blocking": true,
    "replaceable": false,
    "solid": true
  },
  "minecraft:solid_organic": {
    "color": 8368696,
    "push_reaction": "normal",
    "blocks_motion": true,
    "flammable": false,
    "liquid": false,
    "solid_blocking": true,
    "replaceable": false,
    "solid": true
  },
  "minecraft:dense_ice": {
    "color": 10526975,
    "push_reaction": "normal",
    "blocks_motion": true,
    "flammable": false,
    "liquid": false,
    "solid_blocking": true,
    "replaceable": false,
    "solid": true
  },
  "minecraft:aggregate": {
    "color": 16247203,
    "push_reaction": "normal",
    "blocks_motion": true,
    "flammable": false,
    "liquid": false,
    "solid_blocking": true,
    "replaceable": false,
    "solid": true
  },
  "minecraft:sponge": {
    "color": 15066419,
    "push_reaction": "normal",
    "blocks_motion": true,
    "flammable": false,
    "liquid": false,
    "solid_blocking": true,
    "replaceable": false,
    "solid": true
  },
  "minecraft:shulker_box": {
    "color": 8339378,
    "push_reaction": "normal",
    "blocks_motion": true,
    "flammable": false,
    "liquid": false,
    "solid_blocking": true,
    "replaceable": false,
    "solid": true
  },
  "minecraft:wood": {
    "color": 9402184,
    "push_reaction": "normal",
    "blocks_motion": true,
    "flammable": true,
    "liquid": false,
    "solid_blocking": true,
    "replaceable": false,
    "solid": true
  },
  "minecraft:nether_wood": {
    "color": 9402184,
    "push_reaction": "normal",
    "blocks_motion": true,
    "flammable": false,
    "liquid": false,
    "solid_blocking": true,
    "replaceable": false,
    "solid": true
  },
  "minecraft:bamboo_sapling": {
    "color": 9402184,
    "push_reaction": "destroy",
    "blocks_motion": false,
    "flammable": true,
    "liquid": false,
    "solid_blocking": true,
    "replaceable": false,
    "solid": true
  },
  "minecraft:bamboo": {
    "color": 9402184,
    "push_reaction": "destroy",
    "blocks_motion": true,
    "flammable": true,
    "liquid": false,
    "solid_blocking": true,
    "replaceable": false,
    "solid": true
  },
  "minecraft:wool": {
    "color": 13092807,
    "push_reaction": "normal",
    "blocks_motion": true,
    "flammable": true,
    "liquid": false,
    "solid_blocking": true,
    "replaceable": false,
    "solid": true
  },
  "minecraft:tnt": {
    "color": 16711680,
    "push_reaction": "normal",
    "blocks_motion": true,
    "flammable": true,
    "liquid": false,
    "solid_blocking": false,
    "replaceable": false,
    "solid": true
  },
  "minecraft:leaves": {
    "color": 31744,
    "push_reaction": "destroy",
    "blocks_motion": true,
    "flammable": true,
    "liquid": false,
    "solid_blocking": false,
    "replaceable": false,
    "solid": true
  },
  "minecraft:glass": {
    "color": 0,
    "push_reaction": "normal",
    "blocks_motion": true,
    "flammable": false,
    "liquid": false,
    "solid_blocking": false,
    "replaceable": false,
    "solid": true
  },
  "minecraft:ice": {
    "color": 10526975,
    "push_reaction": "normal",
    "blocks_motion": true,
    "flammable": false,
    "liquid": false,
    "solid_blocking": false,
    "replaceable": false,
    "solid": true
  },
  "minecraft:cactus": {
    "color": 31744,
    "push_reaction": "destroy",
    "blocks_motion": true,
    "flammable": false,
    "liquid": false,
    "solid_blocking": false,
    "replaceable": false,
    "solid": true
  },
  "minecraft:stone": {
    "color": 7368816,
    "push_reaction": "normal",
    "blocks_motion": true,
    "flammable": false,
    "liquid": false,
    "solid_blocking": true,
    "replaceable": false,
    "solid": true
  },
  "minecraft:metal": {
    "color": 10987431,
    "push_reaction": "normal",
    "blocks_motion": true,
    "flammable": false,
    "liquid": false,
    "solid_blocking": true,
    "replaceable": false,
    "solid": true
  },
  "minecraft:snow_block": {
    "color": 16777215,
    "push_reaction": "normal",
    "blocks_motion": true,
    "flammable": false,
    "liquid": false,
    "solid_blocking": true,
    "replaceable": false,
    "solid": true
  },
  "minecraft:repair_station": {
    "color": 10987431,
    "push_reaction": "block",
    "blocks_motion": true,
    "flammable": false,
    "liquid": false,
    "solid_blocking": true,
    "replaceable": false,
    "solid": true
  },
  "minecraft:barrier": {
    "color": 0,
    "push_reaction": "block",
    "blocks_motion": true,
    "flammable": false,
    "liquid": false,
    "solid_blocking": true,
    "replaceable": false,
    "solid": true
  },
  "minecraft:piston": {
    "color": 7368816,
    "push_reaction": "block",
    "blocks_motion": true,
    "flammable": false,
    "liquid": false,
    "solid_blocking": true,
    "replaceable": false,
    "solid": true
  },
  "minecraft:moss_block": {
    "color": 31744,
    "push_reaction": "destroy",
    "blocks_motion": true,
    "flammable": false,
    "liquid": false,
    "solid_blocking": true,
    "replaceable": false,
    "solid": true
  },
  "minecraft:gourd": {
    "color": 31744,
    "push_reaction": "destroy",
    "blocks_motion": true,
    "flammable": false,
    "liquid": false,
    "solid_blocking": true,
    "replaceable": false,
    "solid": true
  },
  "minecraft:egg": {
    "color": 31744,
    "push_reaction": "destroy",
    "blocks_motion": true,
    "flammable": false,
    "liquid": false,
    "solid_blocking": true,
    "replaceable": false,
    "solid": true
  },
  "minecraft:cake": {
    "color": 0,
    "push_reaction": "destroy",
    "blocks_motion": true,
    "flammable": false,
    "liquid": false,
    "solid_blocking": true,
    "replaceable": false,
    "solid": true
  },
  "minecraft:amethyst": {
    "color": 8339378,
    "push_reaction": "normal",
    "blocks_motion": true,
    "flammable": false,
    "liquid": false,
    "solid_blocking": true,
    "replaceable": false,
    "solid": true
  },
  "minecraft:powder_snow": {
    "color": 16777215,
    "push_reaction": "normal",
    "blocks_motion": false,
    "flammable": false,
    "liquid": false,
    "solid_blocking": true,
    "replaceable": false,
    "solid": false
  },
  "minecraft:frogspawn": {
    "color": 4210943,
    "push_reaction": "destroy",
    "blocks_motion": false,
    "flammable": false,
    "liquid": false,
    "solid_blocking": false,
    "replaceable": false,
    "solid": false
  },
  "minecraft:froglight": {
    "color": 0,
    "push_reaction": "normal",
    "blocks_motion": true,
    "flammable": false,
    "liquid": false,
    "solid_blocking": true,
    "replaceable": false,
    "solid": true
  },
  "minecraft:decorated_pot": {
    "color": 9321518,
    "push_reaction": "destroy",
    "blocks_motion": true,
    "flammable": false,
    "liquid": false,
    "solid_blocking": true,
    "replaceable": false,
    "solid": true
  }
}