{
  "0": {
    "name": "intentionally_empty",
    "break_sound_type": 853,
    "step_sound_type": 853,
    "place_sound_type": 853,
    "hit_sound_type": 853,
    "fall_sound_type": 853
  },
  "1": {
    "name": "wood",
    "break_sound_type": 1446,
    "step_sound_type": 1450,
    "place_sound_type": 1449,
    "hit_sound_type": 1448,
    "fall_sound_type": 1447
  },
  "2": {
    "name": "gravel",
    "break_sound_type": 574,
    "step_sound_type": 578,
    "place_sound_type": 577,
    "hit_sound_type": 576,
    "fall_sound_type": 575
  },
  "3": {
    "name": "grass",
    "break_sound_type": 569,
    "step_sound_type": 573,
    "place_sound_type": 572,
    "hit_sound_type": 571,
    "fall_sound_type": 570
  },
  "4": {
    "name": "lily_pad",
    "break_sound_type": 142,
    "step_sound_type": 146,
    "place_sound_type": 1368,
    "hit_sound_type": 144,
    "fall_sound_type": 143
  },
  "5": {
    "name": "stone",
    "break_sound_type": 1270,
    "step_sound_type": 1278,
    "place_sound_type": 1275,
    "hit_sound_type": 1274,
    "fall_sound_type": 1273
  },
  "6": {
    "name": "metal",
    "break_sound_type": 733,
    "step_sound_type": 739,
    "place_sound_type": 736,
    "hit_sound_type": 735,
    "fall_sound_type": 734
  },
  "7": {
    "name": "glass",
    "break_sound_type": 534,
    "step_sound_type": 538,
    "place_sound_type": 537,
    "hit_sound_type": 536,
    "fall_sound_type": 535
  },
  "8": {
    "name": "wool",
    "break_sound_type": 1451,
    "step_sound_type": 1455,
    "place_sound_type": 1454,
    "hit_sound_type": 1453,
    "fall_sound_type": 1452
  },
  "9": {
    "name": "sand",
    "break_sound_type": 1094,
    "step_sound_type": 1098,
    "place_sound_type": 1097,
    "hit_sound_type": 1096,
    "fall_sound_type": 1095
  },
  "10": {
    "name": "snow",
    "break_sound_type": 1242,
    "step_sound_type": 1251,
    "place_sound_type": 1250,
    "hit_sound_type": 1249,
    "fall_sound_type": 1243
  },
  "11": {
    "name": "powder_snow",
    "break_sound_type": 1043,
    "step_sound_type": 1047,
    "place_sound_type": 1046,
    "hit_sound_type": 1045,
    "fall_sound_type": 1044
  },
  "12": {
    "name": "ladder",
    "break_sound_type": 683,
    "step_sound_type": 687,
    "place_sound_type": 686,
    "hit_sound_type": 685,
    "fall_sound_type": 684
  },
  "13": {
    "sound_type_volume": 0.3,
    "sound_type_pitch": 1.0,
    "name": "anvil",
    "break_sound_type": 46,
    "step_sound_type": 52,
    "place_sound_type": 51,
    "hit_sound_type": 49,
    "fall_sound_type": 48
  },
  "14": {
    "name": "slime",
    "break_sound_type": 1183,
    "step_sound_type": 1187,
    "place_sound_type": 1186,
    "hit_sound_type": 1185,
    "fall_sound_type": 1184
  },
  "15": {
    "name": "honey",
    "break_sound_type": 618,
    "step_sound_type": 623,
    "place_sound_type": 621,
    "hit_sound_type": 620,
    "fall_sound_type": 619
  },
  "16": {
    "name": "wet_grass",
    "break_sound_type": 1403,
    "step_sound_type": 1407,
    "place_sound_type": 1406,
    "hit_sound_type": 1405,
    "fall_sound_type": 1404
  },
  "17": {
    "name": "coral",
    "break_sound_type": 306,
    "step_sound_type": 310,
    "place_sound_type": 309,
    "hit_sound_type": 308,
    "fall_sound_type": 307
  },
  "18": {
    "name": "bamboo",
    "break_sound_type": 90,
    "step_sound_type": 94,
    "place_sound_type": 93,
    "hit_sound_type": 92,
    "fall_sound_type": 91
  },
  "19": {
    "name": "bamboo_sapling",
    "break_sound_type": 95,
    "step_sound_type": 94,
    "place_sound_type": 97,
    "hit_sound_type": 96,
    "fall_sound_type": 91
  },
  "20": {
    "name": "scaffolding",
    "break_sound_type": 1099,
    "step_sound_type": 1103,
    "place_sound_type": 1102,
    "hit_sound_type": 1101,
    "fall_sound_type": 1100
  },
  "21": {
    "name": "sweet_berry_bush",
    "break_sound_type": 1283,
    "step_sound_type": 573,
    "place_sound_type": 1284,
    "hit_sound_type": 571,
    "fall_sound_type": 570
  },
  "22": {
    "name": "crop",
    "break_sound_type": 319,
    "step_sound_type": 573,
    "place_sound_type": 320,
    "hit_sound_type": 571,
    "fall_sound_type": 570
  },
  "23": {
    "name": "stem",
    "break_sound_type": 1446,
    "step_sound_type": 1450,
    "place_sound_type": 320,
    "hit_sound_type": 1448,
    "fall_sound_type": 1447
  },
  "24": {
    "name": "vine",
    "break_sound_type": 1363,
    "step_sound_type": 1367,
    "place_sound_type": 1366,
    "hit_sound_type": 1365,
    "fall_sound_type": 1364
  },
  "25": {
    "name": "nether_wart",
    "break_sound_type": 836,
    "step_sound_type": 1278,
    "place_sound_type": 837,
    "hit_sound_type": 1274,
    "fall_sound_type": 1273
  },
  "26": {
    "name": "lantern",
    "break_sound_type": 688,
    "step_sound_type": 692,
    "place_sound_type": 691,
    "hit_sound_type": 690,
    "fall_sound_type": 689
  },
  "27": {
    "name": "nether_stem",
    "break_sound_type": 859,
    "step_sound_type": 860,
    "place_sound_type": 861,
    "hit_sound_type": 862,
    "fall_sound_type": 863
  },
  "28": {
    "name": "nylium",
    "break_sound_type": 864,
    "step_sound_type": 865,
    "place_sound_type": 866,
    "hit_sound_type": 867,
    "fall_sound_type": 868
  },
  "29": {
    "name": "fungus",
    "break_sound_type": 874,
    "step_sound_type": 875,
    "place_sound_type": 876,
    "hit_sound_type": 877,
    "fall_sound_type": 878
  },
  "30": {
    "name": "roots",
    "break_sound_type": 506,
    "step_sound_type": 507,
    "place_sound_type": 508,
    "hit_sound_type": 509,
    "fall_sound_type": 510
  },
  "31": {
    "name": "shroomlight",
    "break_sound_type": 1142,
    "step_sound_type": 1143,
    "place_sound_type": 1144,
    "hit_sound_type": 1145,
    "fall_sound_type": 1146
  },
  "32": {
    "name": "weeping_vines",
    "break_sound_type": 879,
    "step_sound_type": 880,
    "place_sound_type": 881,
    "hit_sound_type": 882,
    "fall_sound_type": 883
  },
  "33": {
    "name": "weeping_vines_low_pitch",
    "break_sound_type": 879,
    "step_sound_type": 880,
    "place_sound_type": 881,
    "hit_sound_type": 882,
    "fall_sound_type": 883
  },
  "34": {
    "name": "soul_sand",
    "break_sound_type": 1195,
    "step_sound_type": 1196,
    "place_sound_type": 1197,
    "hit_sound_type": 1198,
    "fall_sound_type": 1199
  },
  "35": {
    "name": "soul_soil",
    "break_sound_type": 1200,
    "step_sound_type": 1201,
    "place_sound_type": 1202,
    "hit_sound_type": 1203,
    "fall_sound_type": 1204
  },
  "36": {
    "name": "basalt",
    "break_sound_type": 115,
    "step_sound_type": 116,
    "place_sound_type": 117,
    "hit_sound_type": 118,
    "fall_sound_type": 119
  },
  "37": {
    "name": "wart_block",
    "break_sound_type": 884,
    "step_sound_type": 885,
    "place_sound_type": 886,
    "hit_sound_type": 887,
    "fall_sound_type": 888
  },
  "38": {
    "name": "netherrack",
    "break_sound_type": 894,
    "step_sound_type": 895,
    "place_sound_type": 896,
    "hit_sound_type": 897,
    "fall_sound_type": 898
  },
  "39": {
    "name": "nether_bricks",
    "break_sound_type": 831,
    "step_sound_type": 832,
    "place_sound_type": 833,
    "hit_sound_type": 834,
    "fall_sound_type": 835
  },
  "40": {
    "name": "nether_sprouts",
    "break_sound_type": 869,
    "step_sound_type": 870,
    "place_sound_type": 871,
    "hit_sound_type": 872,
    "fall_sound_type": 873
  },
  "41": {
    "name": "nether_ore",
    "break_sound_type": 1075,
    "step_sound_type": 1079,
    "place_sound_type": 1078,
    "hit_sound_type": 1077,
    "fall_sound_type": 1076
  },
  "42": {
    "name": "bone",
    "break_sound_type": 154,
    "step_sound_type": 158,
    "place_sound_type": 157,
    "hit_sound_type": 156,
    "fall_sound_type": 155
  },
  "43": {
    "name": "netherite",
    "break_sound_type": 889,
    "step_sound_type": 890,
    "place_sound_type": 891,
    "hit_sound_type": 892,
    "fall_sound_type": 893
  },
  "44": {
    "name": "ancient_debris",
    "break_sound_type": 41,
    "step_sound_type": 42,
    "place_sound_type": 43,
    "hit_sound_type": 44,
    "fall_sound_type": 45
  },
  "45": {
    "name": "lodestone",
    "break_sound_type": 714,
    "step_sound_type": 715,
    "place_sound_type": 716,
    "hit_sound_type": 717,
    "fall_sound_type": 718
  },
  "46": {
    "name": "chain",
    "break_sound_type": 232,
    "step_sound_type": 236,
    "place_sound_type": 235,
    "hit_sound_type": 234,
    "fall_sound_type": 233
  },
  "47": {
    "name": "nether_gold_ore",
    "break_sound_type": 1070,
    "step_sound_type": 1074,
    "place_sound_type": 1073,
    "hit_sound_type": 1072,
    "fall_sound_type": 1071
  },
  "48": {
    "name": "gilded_blackstone",
    "break_sound_type": 529,
    "step_sound_type": 533,
    "place_sound_type": 532,
    "hit_sound_type": 531,
    "fall_sound_type": 530
  },
  "49": {
    "name": "candle",
    "break_sound_type": 211,
    "step_sound_type": 216,
    "place_sound_type": 215,
    "hit_sound_type": 214,
    "fall_sound_type": 213
  },
  "50": {
    "name": "amethyst_block",
    "break_sound_type": 29,
    "step_sound_type": 35,
    "place_sound_type": 33,
    "hit_sound_type": 32,
    "fall_sound_type": 31
  },
  "51": {
    "name": "amethyst_cluster",
    "break_sound_type": 36,
    "step_sound_type": 40,
    "place_sound_type": 39,
    "hit_sound_type": 38,
    "fall_sound_type": 37
  },
  "52": {
    "name": "small_amethyst_bud",
    "break_sound_type": 1188,
    "step_sound_type": 40,
    "place_sound_type": 1189,
    "hit_sound_type": 38,
    "fall_sound_type": 37
  },
  "53": {
    "name": "medium_amethyst_bud",
    "break_sound_type": 731,
    "step_sound_type": 40,
    "place_sound_type": 732,
    "hit_sound_type": 38,
    "fall_sound_type": 37
  },
  "54": {
    "name": "large_amethyst_bud",
    "break_sound_type": 693,
    "step_sound_type": 40,
    "place_sound_type": 694,
    "hit_sound_type": 38,
    "fall_sound_type": 37
  },
  "55": {
    "name": "tuff",
    "break_sound_type": 1309,
    "step_sound_type": 1310,
    "place_sound_type": 1311,
    "hit_sound_type": 1312,
    "fall_sound_type": 1313
  },
  "56": {
    "name": "calcite",
    "break_sound_type": 193,
    "step_sound_type": 194,
    "place_sound_type": 195,
    "hit_sound_type": 196,
    "fall_sound_type": 197
  },
  "57": {
    "name": "dripstone_block",
    "break_sound_type": 369,
    "step_sound_type": 370,
    "place_sound_type": 371,
    "hit_sound_type": 372,
    "fall_sound_type": 373
  },
  "58": {
    "name": "pointed_dripstone",
    "break_sound_type": 374,
    "step_sound_type": 375,
    "place_sound_type": 376,
    "hit_sound_type": 377,
    "fall_sound_type": 378
  },
  "59": {
    "name": "copper",
    "break_sound_type": 301,
    "step_sound_type": 302,
    "place_sound_type": 303,
    "hit_sound_type": 304,
    "fall_sound_type": 305
  },
  "60": {
    "name": "cave_vines",
    "break_sound_type": 226,
    "step_sound_type": 230,
    "place_sound_type": 229,
    "hit_sound_type": 228,
    "fall_sound_type": 227
  },
  "61": {
    "name": "spore_blossom",
    "break_sound_type": 1206,
    "step_sound_type": 1210,
    "place_sound_type": 1209,
    "hit_sound_type": 1208,
    "fall_sound_type": 1207
  },
  "62": {
    "name": "azalea",
    "break_sound_type": 80,
    "step_sound_type": 84,
    "place_sound_type": 83,
    "hit_sound_type": 82,
    "fall_sound_type": 81
  },
  "63": {
    "name": "flowering_azalea",
    "break_sound_type": 461,
    "step_sound_type": 465,
    "place_sound_type": 464,
    "hit_sound_type": 463,
    "fall_sound_type": 462
  },
  "64": {
    "name": "moss_carpet",
    "break_sound_type": 748,
    "step_sound_type": 752,
    "place_sound_type": 751,
    "hit_sound_type": 750,
    "fall_sound_type": 749
  },
  "65": {
    "name": "pink_petals",
    "break_sound_type": 753,
    "step_sound_type": 757,
    "place_sound_type": 756,
    "hit_sound_type": 755,
    "fall_sound_type": 754
  },
  "66": {
    "name": "moss_block",
    "break_sound_type": 758,
    "step_sound_type": 762,
    "place_sound_type": 761,
    "hit_sound_type": 760,
    "fall_sound_type": 759
  },
  "67": {
    "name": "big_dripleaf",
    "break_sound_type": 142,
    "step_sound_type": 146,
    "place_sound_type": 145,
    "hit_sound_type": 144,
    "fall_sound_type": 143
  },
  "68": {
    "name": "small_dripleaf",
    "break_sound_type": 1190,
    "step_sound_type": 1194,
    "place_sound_type": 1193,
    "hit_sound_type": 1192,
    "fall_sound_type": 1191
  },
  "69": {
    "name": "rooted_dirt",
    "break_sound_type": 1085,
    "step_sound_type": 1089,
    "place_sound_type": 1088,
    "hit_sound_type": 1087,
    "fall_sound_type": 1086
  },
  "70": {
    "name": "hanging_roots",
    "break_sound_type": 589,
    "step_sound_type": 593,
    "place_sound_type": 592,
    "hit_sound_type": 591,
    "fall_sound_type": 590
  },
  "71": {
    "name": "azalea_leaves",
    "break_sound_type": 85,
    "step_sound_type": 89,
    "place_sound_type": 88,
    "hit_sound_type": 87,
    "fall_sound_type": 86
  },
  "72": {
    "name": "sculk_sensor",
    "break_sound_type": 1119,
    "step_sound_type": 1123,
    "place_sound_type": 1122,
    "hit_sound_type": 1121,
    "fall_sound_type": 1120
  },
  "73": {
    "name": "sculk_catalyst",
    "break_sound_type": 1112,
    "step_sound_type": 1116,
    "place_sound_type": 1115,
    "hit_sound_type": 1114,
    "fall_sound_type": 1113
  },
  "74": {
    "name": "sculk",
    "break_sound_type": 1106,
    "step_sound_type": 1110,
    "place_sound_type": 1109,
    "hit_sound_type": 1108,
    "fall_sound_type": 1107
  },
  "75": {
    "name": "sculk_vein",
    "break_sound_type": 1130,
    "step_sound_type": 1134,
    "place_sound_type": 1133,
    "hit_sound_type": 1132,
    "fall_sound_type": 1131
  },
  "76": {
    "name": "sculk_shrieker",
    "break_sound_type": 1124,
    "step_sound_type": 1129,
    "place_sound_type": 1127,
    "hit_sound_type": 1126,
    "fall_sound_type": 1125
  },
  "77": {
    "name": "glow_lichen",
    "break_sound_type": 569,
    "step_sound_type": 1367,
    "place_sound_type": 572,
    "hit_sound_type": 571,
    "fall_sound_type": 570
  },
  "78": {
    "name": "deepslate",
    "break_sound_type": 340,
    "step_sound_type": 344,
    "place_sound_type": 343,
    "hit_sound_type": 342,
    "fall_sound_type": 341
  },
  "79": {
    "name": "deepslate_bricks",
    "break_sound_type": 335,
    "step_sound_type": 339,
    "place_sound_type": 338,
    "hit_sound_type": 337,
    "fall_sound_type": 336
  },
  "80": {
    "name": "deepslate_tiles",
    "break_sound_type": 345,
    "step_sound_type": 349,
    "place_sound_type": 348,
    "hit_sound_type": 347,
    "fall_sound_type": 346
  },
  "81": {
    "name": "polished_deepslate",
    "break_sound_type": 1035,
    "step_sound_type": 1039,
    "place_sound_type": 1038,
    "hit_sound_type": 1037,
    "fall_sound_type": 1036
  },
  "82": {
    "name": "froglight",
    "break_sound_type": 487,
    "step_sound_type": 491,
    "place_sound_type": 490,
    "hit_sound_type": 489,
    "fall_sound_type": 488
  },
  "83": {
    "name": "frogspawn",
    "break_sound_type": 493,
    "step_sound_type": 492,
    "place_sound_type": 497,
    "hit_sound_type": 496,
    "fall_sound_type": 494
  },
  "84": {
    "name": "mangrove_roots",
    "break_sound_type": 726,
    "step_sound_type": 730,
    "place_sound_type": 729,
    "hit_sound_type": 728,
    "fall_sound_type": 727
  },
  "85": {
    "name": "muddy_mangrove_roots",
    "break_sound_type": 773,
    "step_sound_type": 777,
    "place_sound_type": 776,
    "hit_sound_type": 775,
    "fall_sound_type": 774
  },
  "86": {
    "name": "mud",
    "break_sound_type": 763,
    "step_sound_type": 767,
    "place_sound_type": 766,
    "hit_sound_type": 765,
    "fall_sound_type": 764
  },
  "87": {
    "name": "mud_bricks",
    "break_sound_type": 768,
    "step_sound_type": 772,
    "place_sound_type": 771,
    "hit_sound_type": 770,
    "fall_sound_type": 769
  },
  "88": {
    "name": "packed_mud",
    "break_sound_type": 854,
    "step_sound_type": 858,
    "place_sound_type": 857,
    "hit_sound_type": 856,
    "fall_sound_type": 855
  },
  "89": {
    "name": "hanging_sign",
    "break_sound_type": 595,
    "step_sound_type": 594,
    "place_sound_type": 598,
    "hit_sound_type": 597,
    "fall_sound_type": 596
  },
  "90": {
    "name": "nether_wood_hanging_sign",
    "break_sound_type": 600,
    "step_sound_type": 599,
    "place_sound_type": 603,
    "hit_sound_type": 602,
    "fall_sound_type": 601
  },
  "91": {
    "name": "bamboo_wood_hanging_sign",
    "break_sound_type": 605,
    "step_sound_type": 604,
    "place_sound_type": 608,
    "hit_sound_type": 607,
    "fall_sound_type": 606
  },
  "92": {
    "name": "bamboo_wood",
    "break_sound_type": 98,
    "step_sound_type": 102,
    "place_sound_type": 101,
    "hit_sound_type": 100,
    "fall_sound_type": 99
  },
  "93": {
    "name": "nether_wood",
    "break_sound_type": 838,
    "step_sound_type": 842,
    "place_sound_type": 841,
    "hit_sound_type": 840,
    "fall_sound_type": 839
  },
  "94": {
    "name": "cherry_wood",
    "break_sound_type": 237,
    "step_sound_type": 241,
    "place_sound_type": 240,
    "hit_sound_type": 239,
    "fall_sound_type": 238
  },
  "95": {
    "name": "cherry_sapling",
    "break_sound_type": 242,
    "step_sound_type": 246,
    "place_sound_type": 245,
    "hit_sound_type": 244,
    "fall_sound_type": 243
  },
  "96": {
    "name": "cherry_leaves",
    "break_sound_type": 247,
    "step_sound_type": 251,
    "place_sound_type": 250,
    "hit_sound_type": 249,
    "fall_sound_type": 248
  },
  "97": {
    "name": "cherry_wood_hanging_sign",
    "break_sound_type": 253,
    "step_sound_type": 252,
    "place_sound_type": 256,
    "hit_sound_type": 255,
    "fall_sound_type": 254
  },
  "98": {
    "name": "chiseled_bookshelf",
    "break_sound_type": 275,
    "step_sound_type": 280,
    "place_sound_type": 283,
    "hit_sound_type": 277,
    "fall_sound_type": 276
  },
  "99": {
    "name": "suspicious_sand",
    "break_sound_type": 477,
    "step_sound_type": 478,
    "place_sound_type": 479,
    "hit_sound_type": 480,
    "fall_sound_type": 481
  },
  "100": {
    "name": "suspicious_gravel",
    "break_sound_type": 482,
    "step_sound_type": 483,
    "place_sound_type": 484,
    "hit_sound_type": 485,
    "fall_sound_type": 486
  },
  "101": {
    "name": "decorated_pot",
    "break_sound_type": 329,
    "step_sound_type": 332,
    "place_sound_type": 333,
    "hit_sound_type": 331,
    "fall_sound_type": 330
  },
  "102": {
    "name": "decorated_pot_shatter",
    "break_sound_type": 334,
    "step_sound_type": 332,
    "place_sound_type": 333,
    "hit_sound_type": 331,
    "fall_sound_type": 330
  },
  "103": {
    "name": "sponge",
    "break_sound_type": 1258,
    "step_sound_type": 1262,
    "place_sound_type": 1261,
    "hit_sound_type": 1260,
    "fall_sound_type": 1259
  },
  "104": {
    "name": "wet_sponge",
    "break_sound_type": 1408,
    "step_sound_type": 1412,
    "place_sound_type": 1411,
    "hit_sound_type": 1410,
    "fall_sound_type": 1409
  }
}