{
  "0": "BYTE",
  "1": "INTEGER",
  "2": "LONG",
  "3": "FLOAT",
  "4": "STRING",
  "5": "TEXT_COMPONENT",
  "6": "OPTIONAL_TEXT_COMPONENT",
  "7": "ITEM_STACK",
  "8": "BOOLEAN",
  "9": "ROTATION",
  "10": "VEC3I",
  "11": "OPTIONAL_VEC3I",
  "12": "DIRECTION",
  "13": "OPTIONAL_UUID",
  "14": "OPTIONAL_BLOCK_STATE",
  "15": "NBT",
  "16": "PARTICLE",
  "17": "VILLAGER_DATA",
  "18": "OPTIONAL_INTEGER",
  "19": "POSE",
  "20": "CAT_VARIANT",
  "21": "FROG_VARIANT",
  "22": "OPTIONAL_GLOBAL_POSITION",
  "23": "MOTIVE"
}