{
  "0": {
    "name": "wood",
    "break_sound_type": 1324,
    "step_sound_type": 1332,
    "place_sound_type": 1329,
    "hit_sound_type": 1328,
    "fall_sound_type": 1327
  },
  "1": {
    "name": "gravel",
    "break_sound_type": 513,
    "step_sound_type": 517,
    "place_sound_type": 516,
    "hit_sound_type": 515,
    "fall_sound_type": 514
  },
  "2": {
    "name": "grass",
    "break_sound_type": 508,
    "step_sound_type": 512,
    "place_sound_type": 511,
    "hit_sound_type": 510,
    "fall_sound_type": 509
  },
  "3": {
    "name": "lily_pad",
    "break_sound_type": 141,
    "step_sound_type": 145,
    "place_sound_type": 1256,
    "hit_sound_type": 143,
    "fall_sound_type": 142
  },
  "4": {
    "name": "stone",
    "break_sound_type": 1158,
    "step_sound_type": 1166,
    "place_sound_type": 1163,
    "hit_sound_type": 1162,
    "fall_sound_type": 1161
  },
  "5": {
    "name": "metal",
    "break_sound_type": 662,
    "step_sound_type": 668,
    "place_sound_type": 665,
    "hit_sound_type": 664,
    "fall_sound_type": 663
  },
  "6": {
    "name": "glass",
    "break_sound_type": 473,
    "step_sound_type": 477,
    "place_sound_type": 476,
    "hit_sound_type": 475,
    "fall_sound_type": 474
  },
  "7": {
    "name": "wool",
    "break_sound_type": 1333,
    "step_sound_type": 1337,
    "place_sound_type": 1336,
    "hit_sound_type": 1335,
    "fall_sound_type": 1334
  },
  "8": {
    "name": "sand",
    "break_sound_type": 1003,
    "step_sound_type": 1007,
    "place_sound_type": 1006,
    "hit_sound_type": 1005,
    "fall_sound_type": 1004
  },
  "9": {
    "name": "snow",
    "break_sound_type": 1136,
    "step_sound_type": 1145,
    "place_sound_type": 1144,
    "hit_sound_type": 1143,
    "fall_sound_type": 1137
  },
  "10": {
    "name": "powder_snow",
    "break_sound_type": 952,
    "step_sound_type": 956,
    "place_sound_type": 955,
    "hit_sound_type": 954,
    "fall_sound_type": 953
  },
  "11": {
    "name": "ladder",
    "break_sound_type": 612,
    "step_sound_type": 616,
    "place_sound_type": 615,
    "hit_sound_type": 614,
    "fall_sound_type": 613
  },
  "12": {
    "sound_type_volume": 0.3,
    "sound_type_pitch": 1.0,
    "name": "anvil",
    "break_sound_type": 45,
    "step_sound_type": 51,
    "place_sound_type": 50,
    "hit_sound_type": 48,
    "fall_sound_type": 47
  },
  "13": {
    "name": "slime",
    "break_sound_type": 1092,
    "step_sound_type": 1096,
    "place_sound_type": 1095,
    "hit_sound_type": 1094,
    "fall_sound_type": 1093
  },
  "14": {
    "name": "honey",
    "break_sound_type": 547,
    "step_sound_type": 552,
    "place_sound_type": 550,
    "hit_sound_type": 549,
    "fall_sound_type": 548
  },
  "15": {
    "name": "wet_grass",
    "break_sound_type": 1290,
    "step_sound_type": 1294,
    "place_sound_type": 1293,
    "hit_sound_type": 1292,
    "fall_sound_type": 1291
  },
  "16": {
    "name": "coral",
    "break_sound_type": 261,
    "step_sound_type": 265,
    "place_sound_type": 264,
    "hit_sound_type": 263,
    "fall_sound_type": 262
  },
  "17": {
    "name": "bamboo",
    "break_sound_type": 89,
    "step_sound_type": 93,
    "place_sound_type": 92,
    "hit_sound_type": 91,
    "fall_sound_type": 90
  },
  "18": {
    "name": "bamboo_sapling",
    "break_sound_type": 94,
    "step_sound_type": 93,
    "place_sound_type": 96,
    "hit_sound_type": 95,
    "fall_sound_type": 90
  },
  "19": {
    "name": "scaffolding",
    "break_sound_type": 1008,
    "step_sound_type": 1012,
    "place_sound_type": 1011,
    "hit_sound_type": 1010,
    "fall_sound_type": 1009
  },
  "20": {
    "name": "sweet_berry_bush",
    "break_sound_type": 1171,
    "step_sound_type": 512,
    "place_sound_type": 1172,
    "hit_sound_type": 510,
    "fall_sound_type": 509
  },
  "21": {
    "name": "crop",
    "break_sound_type": 274,
    "step_sound_type": 512,
    "place_sound_type": 275,
    "hit_sound_type": 510,
    "fall_sound_type": 509
  },
  "22": {
    "name": "stem",
    "break_sound_type": 1324,
    "step_sound_type": 1332,
    "place_sound_type": 275,
    "hit_sound_type": 1328,
    "fall_sound_type": 1327
  },
  "23": {
    "name": "vine",
    "break_sound_type": 1251,
    "step_sound_type": 1255,
    "place_sound_type": 1254,
    "hit_sound_type": 1253,
    "fall_sound_type": 1252
  },
  "24": {
    "name": "nether_wart",
    "break_sound_type": 752,
    "step_sound_type": 1166,
    "place_sound_type": 753,
    "hit_sound_type": 1162,
    "fall_sound_type": 1161
  },
  "25": {
    "name": "lantern",
    "break_sound_type": 617,
    "step_sound_type": 621,
    "place_sound_type": 620,
    "hit_sound_type": 619,
    "fall_sound_type": 618
  },
  "26": {
    "name": "nether_stem",
    "break_sound_type": 774,
    "step_sound_type": 775,
    "place_sound_type": 776,
    "hit_sound_type": 777,
    "fall_sound_type": 778
  },
  "27": {
    "name": "nylium",
    "break_sound_type": 779,
    "step_sound_type": 780,
    "place_sound_type": 781,
    "hit_sound_type": 782,
    "fall_sound_type": 783
  },
  "28": {
    "name": "fungus",
    "break_sound_type": 789,
    "step_sound_type": 790,
    "place_sound_type": 791,
    "hit_sound_type": 792,
    "fall_sound_type": 793
  },
  "29": {
    "name": "roots",
    "break_sound_type": 445,
    "step_sound_type": 446,
    "place_sound_type": 447,
    "hit_sound_type": 448,
    "fall_sound_type": 449
  },
  "30": {
    "name": "shroomlight",
    "break_sound_type": 1051,
    "step_sound_type": 1052,
    "place_sound_type": 1053,
    "hit_sound_type": 1054,
    "fall_sound_type": 1055
  },
  "31": {
    "name": "weeping_vines",
    "break_sound_type": 794,
    "step_sound_type": 795,
    "place_sound_type": 796,
    "hit_sound_type": 797,
    "fall_sound_type": 798
  },
  "32": {
    "name": "weeping_vines_low_pitch",
    "break_sound_type": 794,
    "step_sound_type": 795,
    "place_sound_type": 796,
    "hit_sound_type": 797,
    "fall_sound_type": 798
  },
  "33": {
    "name": "soul_sand",
    "break_sound_type": 1104,
    "step_sound_type": 1105,
    "place_sound_type": 1106,
    "hit_sound_type": 1107,
    "fall_sound_type": 1108
  },
  "34": {
    "name": "soul_soil",
    "break_sound_type": 1109,
    "step_sound_type": 1110,
    "place_sound_type": 1111,
    "hit_sound_type": 1112,
    "fall_sound_type": 1113
  },
  "35": {
    "name": "basalt",
    "break_sound_type": 114,
    "step_sound_type": 115,
    "place_sound_type": 116,
    "hit_sound_type": 117,
    "fall_sound_type": 118
  },
  "36": {
    "name": "wart_block",
    "break_sound_type": 799,
    "step_sound_type": 800,
    "place_sound_type": 801,
    "hit_sound_type": 802,
    "fall_sound_type": 803
  },
  "37": {
    "name": "netherrack",
    "break_sound_type": 809,
    "step_sound_type": 810,
    "place_sound_type": 811,
    "hit_sound_type": 812,
    "fall_sound_type": 813
  },
  "38": {
    "name": "nether_bricks",
    "break_sound_type": 747,
    "step_sound_type": 748,
    "place_sound_type": 749,
    "hit_sound_type": 750,
    "fall_sound_type": 751
  },
  "39": {
    "name": "nether_sprouts",
    "break_sound_type": 784,
    "step_sound_type": 785,
    "place_sound_type": 786,
    "hit_sound_type": 787,
    "fall_sound_type": 788
  },
  "40": {
    "name": "nether_ore",
    "break_sound_type": 984,
    "step_sound_type": 988,
    "place_sound_type": 987,
    "hit_sound_type": 986,
    "fall_sound_type": 985
  },
  "41": {
    "name": "bone",
    "break_sound_type": 153,
    "step_sound_type": 157,
    "place_sound_type": 156,
    "hit_sound_type": 155,
    "fall_sound_type": 154
  },
  "42": {
    "name": "netherite",
    "break_sound_type": 804,
    "step_sound_type": 805,
    "place_sound_type": 806,
    "hit_sound_type": 807,
    "fall_sound_type": 808
  },
  "43": {
    "name": "ancient_debris",
    "break_sound_type": 40,
    "step_sound_type": 41,
    "place_sound_type": 42,
    "hit_sound_type": 43,
    "fall_sound_type": 44
  },
  "44": {
    "name": "lodestone",
    "break_sound_type": 643,
    "step_sound_type": 644,
    "place_sound_type": 645,
    "hit_sound_type": 646,
    "fall_sound_type": 647
  },
  "45": {
    "name": "chain",
    "break_sound_type": 226,
    "step_sound_type": 230,
    "place_sound_type": 229,
    "hit_sound_type": 228,
    "fall_sound_type": 227
  },
  "46": {
    "name": "nether_gold_ore",
    "break_sound_type": 979,
    "step_sound_type": 983,
    "place_sound_type": 982,
    "hit_sound_type": 981,
    "fall_sound_type": 980
  },
  "47": {
    "name": "gilded_blackstone",
    "break_sound_type": 468,
    "step_sound_type": 472,
    "place_sound_type": 471,
    "hit_sound_type": 470,
    "fall_sound_type": 469
  },
  "48": {
    "name": "candle",
    "break_sound_type": 205,
    "step_sound_type": 210,
    "place_sound_type": 209,
    "hit_sound_type": 208,
    "fall_sound_type": 207
  },
  "49": {
    "name": "amethyst_block",
    "break_sound_type": 29,
    "step_sound_type": 34,
    "place_sound_type": 33,
    "hit_sound_type": 32,
    "fall_sound_type": 31
  },
  "50": {
    "name": "amethyst_cluster",
    "break_sound_type": 35,
    "step_sound_type": 39,
    "place_sound_type": 38,
    "hit_sound_type": 37,
    "fall_sound_type": 36
  },
  "51": {
    "name": "small_amethyst_bud",
    "break_sound_type": 1097,
    "step_sound_type": 39,
    "place_sound_type": 1098,
    "hit_sound_type": 37,
    "fall_sound_type": 36
  },
  "52": {
    "name": "medium_amethyst_bud",
    "break_sound_type": 660,
    "step_sound_type": 39,
    "place_sound_type": 661,
    "hit_sound_type": 37,
    "fall_sound_type": 36
  },
  "53": {
    "name": "large_amethyst_bud",
    "break_sound_type": 622,
    "step_sound_type": 39,
    "place_sound_type": 623,
    "hit_sound_type": 37,
    "fall_sound_type": 36
  },
  "54": {
    "name": "tuff",
    "break_sound_type": 1197,
    "step_sound_type": 1198,
    "place_sound_type": 1199,
    "hit_sound_type": 1200,
    "fall_sound_type": 1201
  },
  "55": {
    "name": "calcite",
    "break_sound_type": 187,
    "step_sound_type": 188,
    "place_sound_type": 189,
    "hit_sound_type": 190,
    "fall_sound_type": 191
  },
  "56": {
    "name": "dripstone_block",
    "break_sound_type": 318,
    "step_sound_type": 319,
    "place_sound_type": 320,
    "hit_sound_type": 321,
    "fall_sound_type": 322
  },
  "57": {
    "name": "pointed_dripstone",
    "break_sound_type": 323,
    "step_sound_type": 324,
    "place_sound_type": 325,
    "hit_sound_type": 326,
    "fall_sound_type": 327
  },
  "58": {
    "name": "copper",
    "break_sound_type": 256,
    "step_sound_type": 257,
    "place_sound_type": 258,
    "hit_sound_type": 259,
    "fall_sound_type": 260
  },
  "59": {
    "name": "cave_vines",
    "break_sound_type": 220,
    "step_sound_type": 224,
    "place_sound_type": 223,
    "hit_sound_type": 222,
    "fall_sound_type": 221
  },
  "60": {
    "name": "spore_blossom",
    "break_sound_type": 1115,
    "step_sound_type": 1119,
    "place_sound_type": 1118,
    "hit_sound_type": 1117,
    "fall_sound_type": 1116
  },
  "61": {
    "name": "azalea",
    "break_sound_type": 79,
    "step_sound_type": 83,
    "place_sound_type": 82,
    "hit_sound_type": 81,
    "fall_sound_type": 80
  },
  "62": {
    "name": "flowering_azalea",
    "break_sound_type": 410,
    "step_sound_type": 414,
    "place_sound_type": 413,
    "hit_sound_type": 412,
    "fall_sound_type": 411
  },
  "63": {
    "name": "moss_carpet",
    "break_sound_type": 677,
    "step_sound_type": 681,
    "place_sound_type": 680,
    "hit_sound_type": 679,
    "fall_sound_type": 678
  },
  "64": {
    "name": "moss_block",
    "break_sound_type": 682,
    "step_sound_type": 686,
    "place_sound_type": 685,
    "hit_sound_type": 684,
    "fall_sound_type": 683
  },
  "65": {
    "name": "big_dripleaf",
    "break_sound_type": 141,
    "step_sound_type": 145,
    "place_sound_type": 144,
    "hit_sound_type": 143,
    "fall_sound_type": 142
  },
  "66": {
    "name": "small_dripleaf",
    "break_sound_type": 1099,
    "step_sound_type": 1103,
    "place_sound_type": 1102,
    "hit_sound_type": 1101,
    "fall_sound_type": 1100
  },
  "67": {
    "name": "rooted_dirt",
    "break_sound_type": 994,
    "step_sound_type": 998,
    "place_sound_type": 997,
    "hit_sound_type": 996,
    "fall_sound_type": 995
  },
  "68": {
    "name": "hanging_roots",
    "break_sound_type": 528,
    "step_sound_type": 532,
    "place_sound_type": 531,
    "hit_sound_type": 530,
    "fall_sound_type": 529
  },
  "69": {
    "name": "azalea_leaves",
    "break_sound_type": 84,
    "step_sound_type": 88,
    "place_sound_type": 87,
    "hit_sound_type": 86,
    "fall_sound_type": 85
  },
  "70": {
    "name": "sculk_sensor",
    "break_sound_type": 1028,
    "step_sound_type": 1032,
    "place_sound_type": 1031,
    "hit_sound_type": 1030,
    "fall_sound_type": 1029
  },
  "71": {
    "name": "sculk_catalyst",
    "break_sound_type": 1021,
    "step_sound_type": 1025,
    "place_sound_type": 1024,
    "hit_sound_type": 1023,
    "fall_sound_type": 1022
  },
  "72": {
    "name": "sculk",
    "break_sound_type": 1015,
    "step_sound_type": 1019,
    "place_sound_type": 1018,
    "hit_sound_type": 1017,
    "fall_sound_type": 1016
  },
  "73": {
    "name": "sculk_vein",
    "break_sound_type": 1039,
    "step_sound_type": 1043,
    "place_sound_type": 1042,
    "hit_sound_type": 1041,
    "fall_sound_type": 1040
  },
  "74": {
    "name": "sculk_shrieker",
    "break_sound_type": 1033,
    "step_sound_type": 1038,
    "place_sound_type": 1036,
    "hit_sound_type": 1035,
    "fall_sound_type": 1034
  },
  "75": {
    "name": "glow_lichen",
    "break_sound_type": 508,
    "step_sound_type": 1255,
    "place_sound_type": 511,
    "hit_sound_type": 510,
    "fall_sound_type": 509
  },
  "76": {
    "name": "deepslate",
    "break_sound_type": 289,
    "step_sound_type": 293,
    "place_sound_type": 292,
    "hit_sound_type": 291,
    "fall_sound_type": 290
  },
  "77": {
    "name": "deepslate_bricks",
    "break_sound_type": 284,
    "step_sound_type": 288,
    "place_sound_type": 287,
    "hit_sound_type": 286,
    "fall_sound_type": 285
  },
  "78": {
    "name": "deepslate_tiles",
    "break_sound_type": 294,
    "step_sound_type": 298,
    "place_sound_type": 297,
    "hit_sound_type": 296,
    "fall_sound_type": 295
  },
  "79": {
    "name": "polished_deepslate",
    "break_sound_type": 944,
    "step_sound_type": 948,
    "place_sound_type": 947,
    "hit_sound_type": 946,
    "fall_sound_type": 945
  },
  "80": {
    "name": "froglight",
    "break_sound_type": 426,
    "step_sound_type": 430,
    "place_sound_type": 429,
    "hit_sound_type": 428,
    "fall_sound_type": 427
  },
  "81": {
    "name": "frogspawn",
    "break_sound_type": 432,
    "step_sound_type": 431,
    "place_sound_type": 436,
    "hit_sound_type": 435,
    "fall_sound_type": 433
  },
  "82": {
    "name": "mangrove_roots",
    "break_sound_type": 655,
    "step_sound_type": 659,
    "place_sound_type": 658,
    "hit_sound_type": 657,
    "fall_sound_type": 656
  },
  "83": {
    "name": "muddy_mangrove_roots",
    "break_sound_type": 697,
    "step_sound_type": 701,
    "place_sound_type": 700,
    "hit_sound_type": 699,
    "fall_sound_type": 698
  },
  "84": {
    "name": "mud",
    "break_sound_type": 687,
    "step_sound_type": 691,
    "place_sound_type": 690,
    "hit_sound_type": 689,
    "fall_sound_type": 688
  },
  "85": {
    "name": "mud_bricks",
    "break_sound_type": 692,
    "step_sound_type": 696,
    "place_sound_type": 695,
    "hit_sound_type": 694,
    "fall_sound_type": 693
  },
  "86": {
    "name": "packed_mud",
    "break_sound_type": 769,
    "step_sound_type": 773,
    "place_sound_type": 772,
    "hit_sound_type": 771,
    "fall_sound_type": 770
  },
  "87": {
    "name": "hanging_sign",
    "break_sound_type": 534,
    "step_sound_type": 533,
    "place_sound_type": 537,
    "hit_sound_type": 536,
    "fall_sound_type": 535
  },
  "88": {
    "name": "bamboo_wood",
    "break_sound_type": 97,
    "step_sound_type": 101,
    "place_sound_type": 100,
    "hit_sound_type": 99,
    "fall_sound_type": 98
  },
  "89": {
    "name": "nether_wood",
    "break_sound_type": 754,
    "step_sound_type": 758,
    "place_sound_type": 757,
    "hit_sound_type": 756,
    "fall_sound_type": 755
  }
}