{
  "fire_burn_chances": {
    "13": 5,
    "14": 5,
    "15": 5,
    "16": 5,
    "17": 5,
    "18": 5,
    "19": 5,
    "20": 5,
    "21": 5,
    "22": 5,
    "46": 5,
    "47": 5,
    "48": 5,
    "49": 5,
    "50": 5,
    "51": 5,
    "52": 5,
    "53": 5,
    "54": 5,
    "56": 5,
    "57": 5,
    "58": 5,
    "59": 5,
    "60": 5,
    "61": 5,
    "62": 5,
    "63": 5,
    "64": 5,
    "65": 5,
    "66": 5,
    "67": 5,
    "68": 5,
    "69": 5,
    "70": 5,
    "71": 5,
    "72": 5,
    "73": 5,
    "74": 5,
    "75": 5,
    "76": 5,
    "77": 5,
    "78": 5,
    "79": 5,
    "80": 5,
    "81": 5,
    "82": 30,
    "83": 30,
    "84": 30,
    "85": 30,
    "86": 30,
    "87": 30,
    "88": 30,
    "89": 30,
    "90": 30,
    "91": 30,
    "123": 60,
    "124": 60,
    "125": 60,
    "130": 30,
    "131": 30,
    "132": 30,
    "133": 30,
    "134": 30,
    "135": 30,
    "136": 30,
    "137": 30,
    "138": 30,
    "139": 30,
    "140": 30,
    "141": 30,
    "142": 30,
    "143": 30,
    "144": 30,
    "145": 30,
    "147": 60,
    "148": 60,
    "149": 60,
    "150": 60,
    "151": 60,
    "152": 60,
    "153": 60,
    "154": 60,
    "155": 60,
    "156": 60,
    "157": 60,
    "158": 60,
    "159": 60,
    "160": 60,
    "166": 15,
    "167": 30,
    "176": 5,
    "254": 5,
    "317": 15,
    "318": 15,
    "319": 5,
    "348": 5,
    "349": 5,
    "350": 5,
    "457": 5,
    "458": 5,
    "459": 5,
    "460": 5,
    "461": 5,
    "462": 5,
    "477": 60,
    "478": 60,
    "479": 60,
    "480": 60,
    "481": 60,
    "482": 60,
    "483": 60,
    "484": 60,
    "485": 60,
    "486": 60,
    "487": 60,
    "488": 60,
    "489": 60,
    "490": 60,
    "491": 60,
    "492": 60,
    "493": 60,
    "495": 5,
    "497": 60,
    "498": 60,
    "499": 60,
    "500": 60,
    "501": 60,
    "502": 60,
    "539": 5,
    "540": 5,
    "541": 5,
    "542": 5,
    "543": 5,
    "544": 5,
    "545": 5,
    "546": 5,
    "547": 5,
    "548": 5,
    "567": 5,
    "568": 5,
    "569": 5,
    "570": 5,
    "571": 5,
    "572": 5,
    "573": 5,
    "574": 5,
    "575": 5,
    "576": 5,
    "577": 5,
    "578": 5,
    "579": 5,
    "580": 5,
    "581": 5,
    "582": 5,
    "600": 60,
    "680": 30,
    "727": 60,
    "772": 60,
    "780": 30,
    "788": 60,
    "834": 5,
    "835": 15,
    "836": 30,
    "837": 5,
    "1009": 15,
    "1010": 15,
    "1011": 60,
    "1012": 30,
    "1013": 30,
    "1015": 60,
    "1017": 60,
    "1018": 60,
    "1019": 60,
    "1020": 30
  },
  "fire_spread_chances": {
    "13": 20,
    "14": 20,
    "15": 20,
    "16": 20,
    "17": 20,
    "18": 20,
    "19": 20,
    "20": 20,
    "21": 20,
    "22": 20,
    "46": 5,
    "47": 5,
    "48": 5,
    "49": 5,
    "50": 5,
    "51": 5,
    "52": 5,
    "53": 5,
    "54": 20,
    "56": 5,
    "57": 5,
    "58": 5,
    "59": 5,
    "60": 5,
    "61": 5,
    "62": 5,
    "63": 5,
    "64": 5,
    "65": 5,
    "66": 5,
    "67": 5,
    "68": 5,
    "69": 5,
    "70": 5,
    "71": 5,
    "72": 5,
    "73": 5,
    "74": 5,
    "75": 5,
    "76": 5,
    "77": 5,
    "78": 5,
    "79": 5,
    "80": 5,
    "81": 5,
    "82": 60,
    "83": 60,
    "84": 60,
    "85": 60,
    "86": 60,
    "87": 60,
    "88": 60,
    "89": 60,
    "90": 60,
    "91": 60,
    "123": 100,
    "124": 100,
    "125": 100,
    "130": 60,
    "131": 60,
    "132": 60,
    "133": 60,
    "134": 60,
    "135": 60,
    "136": 60,
    "137": 60,
    "138": 60,
    "139": 60,
    "140": 60,
    "141": 60,
    "142": 60,
    "143": 60,
    "144": 60,
    "145": 60,
    "147": 100,
    "148": 100,
    "149": 100,
    "150": 100,
    "151": 100,
    "152": 100,
    "153": 100,
    "154": 100,
    "155": 100,
    "156": 100,
    "157": 100,
    "158": 100,
    "159": 100,
    "160": 100,
    "166": 100,
    "167": 20,
    "176": 20,
    "254": 20,
    "317": 100,
    "318": 100,
    "319": 20,
    "348": 20,
    "349": 20,
    "350": 20,
    "457": 20,
    "458": 20,
    "459": 20,
    "460": 20,
    "461": 20,
    "462": 20,
    "477": 20,
    "478": 20,
    "479": 20,
    "480": 20,
    "481": 20,
    "482": 20,
    "483": 20,
    "484": 20,
    "485": 20,
    "486": 20,
    "487": 20,
    "488": 20,
    "489": 20,
    "490": 20,
    "491": 20,
    "492": 20,
    "493": 20,
    "495": 5,
    "497": 100,
    "498": 100,
    "499": 100,
    "500": 100,
    "501": 100,
    "502": 100,
    "539": 20,
    "540": 20,
    "541": 20,
    "542": 20,
    "543": 20,
    "544": 20,
    "545": 20,
    "546": 20,
    "547": 20,
    "548": 20,
    "567": 20,
    "568": 20,
    "569": 20,
    "570": 20,
    "571": 20,
    "572": 20,
    "573": 20,
    "574": 20,
    "575": 20,
    "576": 20,
    "577": 20,
    "578": 20,
    "579": 20,
    "580": 20,
    "581": 20,
    "582": 20,
    "600": 100,
    "680": 60,
    "727": 60,
    "772": 60,
    "780": 20,
    "788": 100,
    "834": 20,
    "835": 20,
    "836": 20,
    "837": 20,
    "1009": 60,
    "1010": 60,
    "1011": 100,
    "1012": 60,
    "1013": 60,
    "1015": 100,
    "1017": 100,
    "1018": 100,
    "1019": 100,
    "1020": 60
  },
  "fuel_time": {
    "47": 300,
    "81": 16000,
    "139": 300,
    "196": 100,
    "197": 100,
    "198": 100,
    "250": 50,
    "260": 150,
    "285": 300,
    "286": 300,
    "298": 300,
    "299": 300,
    "302": 300,
    "309": 300,
    "391": 300,
    "655": 50,
    "669": 300,
    "673": 300,
    "677": 300,
    "680": 300,
    "797": 300,
    "799": 1600,
    "800": 1600,
    "814": 200,
    "815": 200,
    "816": 200,
    "817": 200,
    "818": 200,
    "844": 100,
    "845": 100,
    "907": 20000,
    "920": 4001,
    "928": 300,
    "991": 2400,
    "1181": 300,
    "1183": 300,
    "1191": 300,
    "1192": 300,
    "1195": 300,
    "1196": 300,
    "1198": 300
  },
  "map_color": [
    0,
    8368696,
    16247203,
    13092807,
    16711680,
    10526975,
    10987431,
    31744,
    16777215,
    10791096,
    9923917,
    7368816,
    4210943,
    9402184,
    16776437,
    14188339,
    11685080,
    6724056,
    15066419,
    8375321,
    15892389,
    5000268,
    10066329,
    5013401,
    8339378,
    3361970,
    6704179,
    6717235,
    10040115,
    1644825,
    16445005,
    6085589,
    4882687,
    55610,
    8476209,
    7340544,
    13742497,
    10441252,
    9787244,
    7367818,
    12223780,
    6780213,
    10505550,
    3746083,
    8874850,
    5725276,
    8014168,
    4996700,
    4993571,
    5001770,
    9321518,
    2430480,
    12398641,
    9715553,
    6035741,
    1474182,
    3837580,
    5647422,
    1356933,
    6579300,
    14200723,
    8365974,
    -1,
    -1
  ]
}