{
  "0": {
    "name": "wood",
    "break_sound_type": 1427,
    "step_sound_type": 1431,
    "place_sound_type": 1430,
    "hit_sound_type": 1429,
    "fall_sound_type": 1428
  },
  "1": {
    "name": "gravel",
    "break_sound_type": 574,
    "step_sound_type": 578,
    "place_sound_type": 577,
    "hit_sound_type": 576,
    "fall_sound_type": 575
  },
  "2": {
    "name": "grass",
    "break_sound_type": 569,
    "step_sound_type": 573,
    "place_sound_type": 572,
    "hit_sound_type": 571,
    "fall_sound_type": 570
  },
  "3": {
    "name": "lily_pad",
    "break_sound_type": 142,
    "step_sound_type": 146,
    "place_sound_type": 1354,
    "hit_sound_type": 144,
    "fall_sound_type": 143
  },
  "4": {
    "name": "stone",
    "break_sound_type": 1256,
    "step_sound_type": 1264,
    "place_sound_type": 1261,
    "hit_sound_type": 1260,
    "fall_sound_type": 1259
  },
  "5": {
    "name": "metal",
    "break_sound_type": 733,
    "step_sound_type": 739,
    "place_sound_type": 736,
    "hit_sound_type": 735,
    "fall_sound_type": 734
  },
  "6": {
    "name": "glass",
    "break_sound_type": 534,
    "step_sound_type": 538,
    "place_sound_type": 537,
    "hit_sound_type": 536,
    "fall_sound_type": 535
  },
  "7": {
    "name": "wool",
    "break_sound_type": 1432,
    "step_sound_type": 1436,
    "place_sound_type": 1435,
    "hit_sound_type": 1434,
    "fall_sound_type": 1433
  },
  "8": {
    "name": "sand",
    "break_sound_type": 1087,
    "step_sound_type": 1091,
    "place_sound_type": 1090,
    "hit_sound_type": 1089,
    "fall_sound_type": 1088
  },
  "9": {
    "name": "snow",
    "break_sound_type": 1234,
    "step_sound_type": 1243,
    "place_sound_type": 1242,
    "hit_sound_type": 1241,
    "fall_sound_type": 1235
  },
  "10": {
    "name": "powder_snow",
    "break_sound_type": 1036,
    "step_sound_type": 1040,
    "place_sound_type": 1039,
    "hit_sound_type": 1038,
    "fall_sound_type": 1037
  },
  "11": {
    "name": "ladder",
    "break_sound_type": 683,
    "step_sound_type": 687,
    "place_sound_type": 686,
    "hit_sound_type": 685,
    "fall_sound_type": 684
  },
  "12": {
    "sound_type_volume": 0.3,
    "sound_type_pitch": 1.0,
    "name": "anvil",
    "break_sound_type": 46,
    "step_sound_type": 52,
    "place_sound_type": 51,
    "hit_sound_type": 49,
    "fall_sound_type": 48
  },
  "13": {
    "name": "slime",
    "break_sound_type": 1176,
    "step_sound_type": 1180,
    "place_sound_type": 1179,
    "hit_sound_type": 1178,
    "fall_sound_type": 1177
  },
  "14": {
    "name": "honey",
    "break_sound_type": 618,
    "step_sound_type": 623,
    "place_sound_type": 621,
    "hit_sound_type": 620,
    "fall_sound_type": 619
  },
  "15": {
    "name": "wet_grass",
    "break_sound_type": 1389,
    "step_sound_type": 1393,
    "place_sound_type": 1392,
    "hit_sound_type": 1391,
    "fall_sound_type": 1390
  },
  "16": {
    "name": "coral",
    "break_sound_type": 306,
    "step_sound_type": 310,
    "place_sound_type": 309,
    "hit_sound_type": 308,
    "fall_sound_type": 307
  },
  "17": {
    "name": "bamboo",
    "break_sound_type": 90,
    "step_sound_type": 94,
    "place_sound_type": 93,
    "hit_sound_type": 92,
    "fall_sound_type": 91
  },
  "18": {
    "name": "bamboo_sapling",
    "break_sound_type": 95,
    "step_sound_type": 94,
    "place_sound_type": 97,
    "hit_sound_type": 96,
    "fall_sound_type": 91
  },
  "19": {
    "name": "scaffolding",
    "break_sound_type": 1092,
    "step_sound_type": 1096,
    "place_sound_type": 1095,
    "hit_sound_type": 1094,
    "fall_sound_type": 1093
  },
  "20": {
    "name": "sweet_berry_bush",
    "break_sound_type": 1269,
    "step_sound_type": 573,
    "place_sound_type": 1270,
    "hit_sound_type": 571,
    "fall_sound_type": 570
  },
  "21": {
    "name": "crop",
    "break_sound_type": 319,
    "step_sound_type": 573,
    "place_sound_type": 320,
    "hit_sound_type": 571,
    "fall_sound_type": 570
  },
  "22": {
    "name": "stem",
    "break_sound_type": 1427,
    "step_sound_type": 1431,
    "place_sound_type": 320,
    "hit_sound_type": 1429,
    "fall_sound_type": 1428
  },
  "23": {
    "name": "vine",
    "break_sound_type": 1349,
    "step_sound_type": 1353,
    "place_sound_type": 1352,
    "hit_sound_type": 1351,
    "fall_sound_type": 1350
  },
  "24": {
    "name": "nether_wart",
    "break_sound_type": 829,
    "step_sound_type": 1264,
    "place_sound_type": 830,
    "hit_sound_type": 1260,
    "fall_sound_type": 1259
  },
  "25": {
    "name": "lantern",
    "break_sound_type": 688,
    "step_sound_type": 692,
    "place_sound_type": 691,
    "hit_sound_type": 690,
    "fall_sound_type": 689
  },
  "26": {
    "name": "nether_stem",
    "break_sound_type": 852,
    "step_sound_type": 853,
    "place_sound_type": 854,
    "hit_sound_type": 855,
    "fall_sound_type": 856
  },
  "27": {
    "name": "nylium",
    "break_sound_type": 857,
    "step_sound_type": 858,
    "place_sound_type": 859,
    "hit_sound_type": 860,
    "fall_sound_type": 861
  },
  "28": {
    "name": "fungus",
    "break_sound_type": 867,
    "step_sound_type": 868,
    "place_sound_type": 869,
    "hit_sound_type": 870,
    "fall_sound_type": 871
  },
  "29": {
    "name": "roots",
    "break_sound_type": 506,
    "step_sound_type": 507,
    "place_sound_type": 508,
    "hit_sound_type": 509,
    "fall_sound_type": 510
  },
  "30": {
    "name": "shroomlight",
    "break_sound_type": 1135,
    "step_sound_type": 1136,
    "place_sound_type": 1137,
    "hit_sound_type": 1138,
    "fall_sound_type": 1139
  },
  "31": {
    "name": "weeping_vines",
    "break_sound_type": 872,
    "step_sound_type": 873,
    "place_sound_type": 874,
    "hit_sound_type": 875,
    "fall_sound_type": 876
  },
  "32": {
    "name": "weeping_vines_low_pitch",
    "break_sound_type": 872,
    "step_sound_type": 873,
    "place_sound_type": 874,
    "hit_sound_type": 875,
    "fall_sound_type": 876
  },
  "33": {
    "name": "soul_sand",
    "break_sound_type": 1188,
    "step_sound_type": 1189,
    "place_sound_type": 1190,
    "hit_sound_type": 1191,
    "fall_sound_type": 1192
  },
  "34": {
    "name": "soul_soil",
    "break_sound_type": 1193,
    "step_sound_type": 1194,
    "place_sound_type": 1195,
    "hit_sound_type": 1196,
    "fall_sound_type": 1197
  },
  "35": {
    "name": "basalt",
    "break_sound_type": 115,
    "step_sound_type": 116,
    "place_sound_type": 117,
    "hit_sound_type": 118,
    "fall_sound_type": 119
  },
  "36": {
    "name": "wart_block",
    "break_sound_type": 877,
    "step_sound_type": 878,
    "place_sound_type": 879,
    "hit_sound_type": 880,
    "fall_sound_type": 881
  },
  "37": {
    "name": "netherrack",
    "break_sound_type": 887,
    "step_sound_type": 888,
    "place_sound_type": 889,
    "hit_sound_type": 890,
    "fall_sound_type": 891
  },
  "38": {
    "name": "nether_bricks",
    "break_sound_type": 824,
    "step_sound_type": 825,
    "place_sound_type": 826,
    "hit_sound_type": 827,
    "fall_sound_type": 828
  },
  "39": {
    "name": "nether_sprouts",
    "break_sound_type": 862,
    "step_sound_type": 863,
    "place_sound_type": 864,
    "hit_sound_type": 865,
    "fall_sound_type": 866
  },
  "40": {
    "name": "nether_ore",
    "break_sound_type": 1068,
    "step_sound_type": 1072,
    "place_sound_type": 1071,
    "hit_sound_type": 1070,
    "fall_sound_type": 1069
  },
  "41": {
    "name": "bone",
    "break_sound_type": 154,
    "step_sound_type": 158,
    "place_sound_type": 157,
    "hit_sound_type": 156,
    "fall_sound_type": 155
  },
  "42": {
    "name": "netherite",
    "break_sound_type": 882,
    "step_sound_type": 883,
    "place_sound_type": 884,
    "hit_sound_type": 885,
    "fall_sound_type": 886
  },
  "43": {
    "name": "ancient_debris",
    "break_sound_type": 41,
    "step_sound_type": 42,
    "place_sound_type": 43,
    "hit_sound_type": 44,
    "fall_sound_type": 45
  },
  "44": {
    "name": "lodestone",
    "break_sound_type": 714,
    "step_sound_type": 715,
    "place_sound_type": 716,
    "hit_sound_type": 717,
    "fall_sound_type": 718
  },
  "45": {
    "name": "chain",
    "break_sound_type": 232,
    "step_sound_type": 236,
    "place_sound_type": 235,
    "hit_sound_type": 234,
    "fall_sound_type": 233
  },
  "46": {
    "name": "nether_gold_ore",
    "break_sound_type": 1063,
    "step_sound_type": 1067,
    "place_sound_type": 1066,
    "hit_sound_type": 1065,
    "fall_sound_type": 1064
  },
  "47": {
    "name": "gilded_blackstone",
    "break_sound_type": 529,
    "step_sound_type": 533,
    "place_sound_type": 532,
    "hit_sound_type": 531,
    "fall_sound_type": 530
  },
  "48": {
    "name": "candle",
    "break_sound_type": 211,
    "step_sound_type": 216,
    "place_sound_type": 215,
    "hit_sound_type": 214,
    "fall_sound_type": 213
  },
  "49": {
    "name": "amethyst_block",
    "break_sound_type": 29,
    "step_sound_type": 35,
    "place_sound_type": 33,
    "hit_sound_type": 32,
    "fall_sound_type": 31
  },
  "50": {
    "name": "amethyst_cluster",
    "break_sound_type": 36,
    "step_sound_type": 40,
    "place_sound_type": 39,
    "hit_sound_type": 38,
    "fall_sound_type": 37
  },
  "51": {
    "name": "small_amethyst_bud",
    "break_sound_type": 1181,
    "step_sound_type": 40,
    "place_sound_type": 1182,
    "hit_sound_type": 38,
    "fall_sound_type": 37
  },
  "52": {
    "name": "medium_amethyst_bud",
    "break_sound_type": 731,
    "step_sound_type": 40,
    "place_sound_type": 732,
    "hit_sound_type": 38,
    "fall_sound_type": 37
  },
  "53": {
    "name": "large_amethyst_bud",
    "break_sound_type": 693,
    "step_sound_type": 40,
    "place_sound_type": 694,
    "hit_sound_type": 38,
    "fall_sound_type": 37
  },
  "54": {
    "name": "tuff",
    "break_sound_type": 1295,
    "step_sound_type": 1296,
    "place_sound_type": 1297,
    "hit_sound_type": 1298,
    "fall_sound_type": 1299
  },
  "55": {
    "name": "calcite",
    "break_sound_type": 193,
    "step_sound_type": 194,
    "place_sound_type": 195,
    "hit_sound_type": 196,
    "fall_sound_type": 197
  },
  "56": {
    "name": "dripstone_block",
    "break_sound_type": 369,
    "step_sound_type": 370,
    "place_sound_type": 371,
    "hit_sound_type": 372,
    "fall_sound_type": 373
  },
  "57": {
    "name": "pointed_dripstone",
    "break_sound_type": 374,
    "step_sound_type": 375,
    "place_sound_type": 376,
    "hit_sound_type": 377,
    "fall_sound_type": 378
  },
  "58": {
    "name": "copper",
    "break_sound_type": 301,
    "step_sound_type": 302,
    "place_sound_type": 303,
    "hit_sound_type": 304,
    "fall_sound_type": 305
  },
  "59": {
    "name": "cave_vines",
    "break_sound_type": 226,
    "step_sound_type": 230,
    "place_sound_type": 229,
    "hit_sound_type": 228,
    "fall_sound_type": 227
  },
  "60": {
    "name": "spore_blossom",
    "break_sound_type": 1199,
    "step_sound_type": 1203,
    "place_sound_type": 1202,
    "hit_sound_type": 1201,
    "fall_sound_type": 1200
  },
  "61": {
    "name": "azalea",
    "break_sound_type": 80,
    "step_sound_type": 84,
    "place_sound_type": 83,
    "hit_sound_type": 82,
    "fall_sound_type": 81
  },
  "62": {
    "name": "flowering_azalea",
    "break_sound_type": 461,
    "step_sound_type": 465,
    "place_sound_type": 464,
    "hit_sound_type": 463,
    "fall_sound_type": 462
  },
  "63": {
    "name": "moss_carpet",
    "break_sound_type": 748,
    "step_sound_type": 752,
    "place_sound_type": 751,
    "hit_sound_type": 750,
    "fall_sound_type": 749
  },
  "64": {
    "name": "pink_petals",
    "break_sound_type": 753,
    "step_sound_type": 757,
    "place_sound_type": 756,
    "hit_sound_type": 755,
    "fall_sound_type": 754
  },
  "65": {
    "name": "moss_block",
    "break_sound_type": 758,
    "step_sound_type": 762,
    "place_sound_type": 761,
    "hit_sound_type": 760,
    "fall_sound_type": 759
  },
  "66": {
    "name": "big_dripleaf",
    "break_sound_type": 142,
    "step_sound_type": 146,
    "place_sound_type": 145,
    "hit_sound_type": 144,
    "fall_sound_type": 143
  },
  "67": {
    "name": "small_dripleaf",
    "break_sound_type": 1183,
    "step_sound_type": 1187,
    "place_sound_type": 1186,
    "hit_sound_type": 1185,
    "fall_sound_type": 1184
  },
  "68": {
    "name": "rooted_dirt",
    "break_sound_type": 1078,
    "step_sound_type": 1082,
    "place_sound_type": 1081,
    "hit_sound_type": 1080,
    "fall_sound_type": 1079
  },
  "69": {
    "name": "hanging_roots",
    "break_sound_type": 589,
    "step_sound_type": 593,
    "place_sound_type": 592,
    "hit_sound_type": 591,
    "fall_sound_type": 590
  },
  "70": {
    "name": "azalea_leaves",
    "break_sound_type": 85,
    "step_sound_type": 89,
    "place_sound_type": 88,
    "hit_sound_type": 87,
    "fall_sound_type": 86
  },
  "71": {
    "name": "sculk_sensor",
    "break_sound_type": 1112,
    "step_sound_type": 1116,
    "place_sound_type": 1115,
    "hit_sound_type": 1114,
    "fall_sound_type": 1113
  },
  "72": {
    "name": "sculk_catalyst",
    "break_sound_type": 1105,
    "step_sound_type": 1109,
    "place_sound_type": 1108,
    "hit_sound_type": 1107,
    "fall_sound_type": 1106
  },
  "73": {
    "name": "sculk",
    "break_sound_type": 1099,
    "step_sound_type": 1103,
    "place_sound_type": 1102,
    "hit_sound_type": 1101,
    "fall_sound_type": 1100
  },
  "74": {
    "name": "sculk_vein",
    "break_sound_type": 1123,
    "step_sound_type": 1127,
    "place_sound_type": 1126,
    "hit_sound_type": 1125,
    "fall_sound_type": 1124
  },
  "75": {
    "name": "sculk_shrieker",
    "break_sound_type": 1117,
    "step_sound_type": 1122,
    "place_sound_type": 1120,
    "hit_sound_type": 1119,
    "fall_sound_type": 1118
  },
  "76": {
    "name": "glow_lichen",
    "break_sound_type": 569,
    "step_sound_type": 1353,
    "place_sound_type": 572,
    "hit_sound_type": 571,
    "fall_sound_type": 570
  },
  "77": {
    "name": "deepslate",
    "break_sound_type": 340,
    "step_sound_type": 344,
    "place_sound_type": 343,
    "hit_sound_type": 342,
    "fall_sound_type": 341
  },
  "78": {
    "name": "deepslate_bricks",
    "break_sound_type": 335,
    "step_sound_type": 339,
    "place_sound_type": 338,
    "hit_sound_type": 337,
    "fall_sound_type": 336
  },
  "79": {
    "name": "deepslate_tiles",
    "break_sound_type": 345,
    "step_sound_type": 349,
    "place_sound_type": 348,
    "hit_sound_type": 347,
    "fall_sound_type": 346
  },
  "80": {
    "name": "polished_deepslate",
    "break_sound_type": 1028,
    "step_sound_type": 1032,
    "place_sound_type": 1031,
    "hit_sound_type": 1030,
    "fall_sound_type": 1029
  },
  "81": {
    "name": "froglight",
    "break_sound_type": 487,
    "step_sound_type": 491,
    "place_sound_type": 490,
    "hit_sound_type": 489,
    "fall_sound_type": 488
  },
  "82": {
    "name": "frogspawn",
    "break_sound_type": 493,
    "step_sound_type": 492,
    "place_sound_type": 497,
    "hit_sound_type": 496,
    "fall_sound_type": 494
  },
  "83": {
    "name": "mangrove_roots",
    "break_sound_type": 726,
    "step_sound_type": 730,
    "place_sound_type": 729,
    "hit_sound_type": 728,
    "fall_sound_type": 727
  },
  "84": {
    "name": "muddy_mangrove_roots",
    "break_sound_type": 773,
    "step_sound_type": 777,
    "place_sound_type": 776,
    "hit_sound_type": 775,
    "fall_sound_type": 774
  },
  "85": {
    "name": "mud",
    "break_sound_type": 763,
    "step_sound_type": 767,
    "place_sound_type": 766,
    "hit_sound_type": 765,
    "fall_sound_type": 764
  },
  "86": {
    "name": "mud_bricks",
    "break_sound_type": 768,
    "step_sound_type": 772,
    "place_sound_type": 771,
    "hit_sound_type": 770,
    "fall_sound_type": 769
  },
  "87": {
    "name": "packed_mud",
    "break_sound_type": 847,
    "step_sound_type": 851,
    "place_sound_type": 850,
    "hit_sound_type": 849,
    "fall_sound_type": 848
  },
  "88": {
    "name": "hanging_sign",
    "break_sound_type": 595,
    "step_sound_type": 594,
    "place_sound_type": 598,
    "hit_sound_type": 597,
    "fall_sound_type": 596
  },
  "89": {
    "name": "nether_wood_hanging_sign",
    "break_sound_type": 600,
    "step_sound_type": 599,
    "place_sound_type": 603,
    "hit_sound_type": 602,
    "fall_sound_type": 601
  },
  "90": {
    "name": "bamboo_wood_hanging_sign",
    "break_sound_type": 605,
    "step_sound_type": 604,
    "place_sound_type": 608,
    "hit_sound_type": 607,
    "fall_sound_type": 606
  },
  "91": {
    "name": "bamboo_wood",
    "break_sound_type": 98,
    "step_sound_type": 102,
    "place_sound_type": 101,
    "hit_sound_type": 100,
    "fall_sound_type": 99
  },
  "92": {
    "name": "nether_wood",
    "break_sound_type": 831,
    "step_sound_type": 835,
    "place_sound_type": 834,
    "hit_sound_type": 833,
    "fall_sound_type": 832
  },
  "93": {
    "name": "cherry_wood",
    "break_sound_type": 237,
    "step_sound_type": 241,
    "place_sound_type": 240,
    "hit_sound_type": 239,
    "fall_sound_type": 238
  },
  "94": {
    "name": "cherry_sapling",
    "break_sound_type": 242,
    "step_sound_type": 246,
    "place_sound_type": 245,
    "hit_sound_type": 244,
    "fall_sound_type": 243
  },
  "95": {
    "name": "cherry_leaves",
    "break_sound_type": 247,
    "step_sound_type": 251,
    "place_sound_type": 250,
    "hit_sound_type": 249,
    "fall_sound_type": 248
  },
  "96": {
    "name": "cherry_wood_hanging_sign",
    "break_sound_type": 253,
    "step_sound_type": 252,
    "place_sound_type": 256,
    "hit_sound_type": 255,
    "fall_sound_type": 254
  },
  "97": {
    "name": "chiseled_bookshelf",
    "break_sound_type": 275,
    "step_sound_type": 280,
    "place_sound_type": 283,
    "hit_sound_type": 277,
    "fall_sound_type": 276
  },
  "98": {
    "name": "suspicious_sand",
    "break_sound_type": 477,
    "step_sound_type": 478,
    "place_sound_type": 479,
    "hit_sound_type": 480,
    "fall_sound_type": 481
  },
  "99": {
    "name": "suspicious_gravel",
    "break_sound_type": 482,
    "step_sound_type": 483,
    "place_sound_type": 484,
    "hit_sound_type": 485,
    "fall_sound_type": 486
  },
  "100": {
    "name": "decorated_pot",
    "break_sound_type": 329,
    "step_sound_type": 332,
    "place_sound_type": 333,
    "hit_sound_type": 331,
    "fall_sound_type": 330
  },
  "101": {
    "name": "decorated_pot_shatter",
    "break_sound_type": 334,
    "step_sound_type": 332,
    "place_sound_type": 333,
    "hit_sound_type": 331,
    "fall_sound_type": 330
  }
}