{
  "brigadier:bool": {
    "id": 0
  },
  "brigadier:float": {
    "id": 1
  },
  "brigadier:double": {
    "id": 2
  },
  "brigadier:integer": {
    "id": 3
  },
  "brigadier:long": {
    "id": 4
  },
  "brigadier:string": {
    "id": 5
  },
  "minecraft:entity": {
    "id": 6
  },
  "minecraft:game_profile": {
    "id": 7
  },
  "minecraft:block_pos": {
    "id": 8
  },
  "minecraft:column_pos": {
    "id": 9
  },
  "minecraft:vec3": {
    "id": 10
  },
  "minecraft:vec2": {
    "id": 11
  },
  "minecraft:block_state": {
    "id": 12
  },
  "minecraft:block_predicate": {
    "id": 13
  },
  "minecraft:item_stack": {
    "id": 14
  },
  "minecraft:item_predicate": {
    "id": 15
  },
  "minecraft:color": {
    "id": 16
  },
  "minecraft:component": {
    "id": 17
  },
  "minecraft:message": {
    "id": 18
  },
  "minecraft:nbt_compound_tag": {
    "id": 19
  },
  "minecraft:nbt_tag": {
    "id": 20
  },
  "minecraft:nbt_path": {
    "id": 21
  },
  "minecraft:objective": {
    "id": 22
  },
  "minecraft:objective_criteria": {
    "id": 23
  },
  "minecraft:operation": {
    "id": 24
  },
  "minecraft:particle": {
    "id": 25
  },
  "minecraft:angle": {
    "id": 26
  },
  "minecraft:rotation": {
    "id": 27
  },
  "minecraft:scoreboard_slot": {
    "id": 28
  },
  "minecraft:score_holder": {
    "id": 29
  },
  "minecraft:swizzle": {
    "id": 30
  },
  "minecraft:team": {
    "id": 31
  },
  "minecraft:item_slot": {
    "id": 32
  },
  "minecraft:resource_location": {
    "id": 33
  },
  "minecraft:function": {
    "id": 34
  },
  "minecraft:entity_anchor": {
    "id": 35
  },
  "minecraft:int_range": {
    "id": 36
  },
  "minecraft:float_range": {
    "id": 37
  },
  "minecraft:dimension": {
    "id": 38
  },
  "minecraft:time": {
    "id": 39
  },
  "minecraft:resource_or_tag": {
    "id": 40
  },
  "minecraft:resource_or_tag_key": {
    "id": 41
  },
  "minecraft:resource": {
    "id": 42
  },
  "minecraft:resource_key": {
    "id": 43
  },
  "minecraft:template_mirror": {
    "id": 44
  },
  "minecraft:template_rotation": {
    "id": 45
  },
  "minecraft:uuid": {
    "id": 46
  }
}